-- phpMyAdmin SQL Dump
-- version 5.2.1
-- https://www.phpmyadmin.net/
--
-- Host: localhost:3306
-- Generation Time: Aug 26, 2023 at 11:19 PM
-- Server version: 10.6.14-MariaDB-cll-lve
-- PHP Version: 8.1.16

SET SQL_MODE = "NO_AUTO_VALUE_ON_ZERO";
START TRANSACTION;
SET time_zone = "+00:00";


/*!40101 SET @OLD_CHARACTER_SET_CLIENT=@@CHARACTER_SET_CLIENT */;
/*!40101 SET @OLD_CHARACTER_SET_RESULTS=@@CHARACTER_SET_RESULTS */;
/*!40101 SET @OLD_COLLATION_CONNECTION=@@COLLATION_CONNECTION */;
/*!40101 SET NAMES utf8mb4 */;

--
-- Database: `u8871026_lila_okejobdev`
--

-- --------------------------------------------------------

--
-- Table structure for table `airports`
--

CREATE TABLE `airports` (
  `city_code` varchar(4) NOT NULL,
  `city_name` varchar(255) NOT NULL,
  `airport_code` varchar(4) NOT NULL,
  `airport_name` varchar(255) NOT NULL,
  `country_code` varchar(4) NOT NULL,
  `country_name` varchar(255) NOT NULL
) ENGINE=InnoDB DEFAULT CHARSET=utf8mb4 COLLATE=utf8mb4_general_ci;

--
-- Dumping data for table `airports`
--

INSERT INTO `airports` (`city_code`, `city_name`, `airport_code`, `airport_name`, `country_code`, `country_name`) VALUES
('AAC', 'Egypt', 'AAC', 'Al Arish', 'EG', 'Egypt'),
('AAE', 'Algeria', 'AAE', 'Annaba', 'DZ', ''),
('AAL', 'Denmark', 'AAL', 'Alborg', 'DK', ''),
('AAN', 'United Arab Emirates', 'AAN', 'Al Ain', 'AE', ''),
('AAR', 'Denmark', 'AAR', 'Aarhus', 'DK', ''),
('ABD', 'Iran', 'ABD', 'Abadan', 'IR', ''),
('ABE', 'PA', 'ABE', 'Allentown', 'US', ''),
('ABI', 'TX', 'ABI', 'Abilene', 'US', ''),
('ABJ', 'Ivory Coast', 'ABJ', 'Abidjan', 'CI', ''),
('ABM', 'Australia', 'ABM', 'Bamaga', 'AU', ''),
('ABQ', 'NM', 'ABQ', 'Albuquerque', 'US', ''),
('ABR', 'SD', 'ABR', 'Aberdeen', 'US', ''),
('ABS', 'Egypt', 'ABS', 'Abu Simbel', 'EG', 'Egypt'),
('ABU', 'Atambua', 'ABU', 'Haliwen', 'ID', 'Indonesia'),
('ABV', 'Nigeria', 'ABV', 'Abuja International', 'NG', ''),
('ABX', 'Australia', 'ABX', 'Albury', 'AU', ''),
('ABY', 'GA', 'ABY', 'Albany', 'US', ''),
('ABZ', 'United Kingdom', 'ABZ', 'Aberdeen', 'GB', ''),
('ACA', 'Mexico', 'ACA', 'Acapulco', 'MX', ''),
('ACC', 'Ghana', 'ACC', 'Accra', 'GH', ''),
('ACE', 'Spain', 'ACE', 'Arrecife/Lanzarote', 'ES', ''),
('ACH', 'Switzerland', 'ACH', 'Altenrhein', 'CH', ''),
('ACK', 'MA', 'ACK', 'Nantucket', 'US', ''),
('ACT', 'TX', 'ACT', 'Waco', 'US', ''),
('ACV', 'CA', 'ACV', 'Eureka', 'US', ''),
('ACY', 'NJ', 'ACY', 'Atlantic City', 'US', ''),
('ADA', 'Turkey', 'ADA', 'Adana', 'TR', ''),
('ADD', 'Ethiopia', 'ADD', 'Addis Ababa', 'ET', ''),
('ADE', 'Yemen', 'ADE', 'Aden', 'YE', ''),
('ADJ', 'Civil - Marka Airport', 'ADJ', 'Amman', 'JO', ''),
('ADL', 'Australia', 'ADL', 'Adelaide', 'AU', ''),
('ADQ', 'AK', 'ADQ', 'Kodiak', 'US', ''),
('ADX', 'Kazakhstan', 'ADX', 'Aktyubinsk', 'LN', ''),
('ADY', 'South Africa', 'ADY', 'Alldays', 'LN', ''),
('ADZ', 'Colombia', 'ADZ', 'San Andres', 'CO', ''),
('AEG', 'Tapanuli Selatan', 'AEG', 'Aek Godang', 'ID', 'Indonesia'),
('AEH', 'Chad', 'AEH', 'Abeche', 'TD', ''),
('AEP', 'Jorge Newbery', 'AEP', 'Buenos Aires', 'AR', ''),
('AER', 'Russia', 'AER', 'Adler/Sochi', 'RU', ''),
('AES', 'Norway', 'AES', 'Alesund', 'NO', ''),
('AGA', 'Morocco', 'AGA', 'Agadir', 'MA', ''),
('AGB', 'Germany', 'AGB', 'Augsburg', 'DE', ''),
('AGP', 'Spain', 'AGP', 'Malaga', 'ES', ''),
('AGS', 'GA', 'AGS', 'Augusta', 'US', ''),
('AGU', 'Mexico', 'AGU', 'Aguascaliente', 'MX', ''),
('AGZ', 'South Africa', 'AGZ', 'Aggeneys', 'LN', ''),
('AHB', 'Saudi Arabia', 'AHB', 'Khamis Mushayat', 'SA', ''),
('AHN', 'GA', 'AHN', 'Athens', 'US', ''),
('AHO', 'Italy', 'AHO', 'Alghero Sassari', 'IT', ''),
('AHU', 'Morocco', 'AHU', 'Al Hoceima', 'MA', ''),
('AJA', 'France', 'AJA', 'Ajaccio', 'FR', ''),
('AJN', 'Comoros (Comores)', 'AJN', 'Anjouan', 'KM', ''),
('AJU', 'Brazil', 'AJU', 'Aracaju', 'BR', ''),
('AJY', 'Niger', 'AJY', 'Agades', 'NE', ''),
('AKL', 'New Zealand', 'AKL', 'Auckland', 'NZ', ''),
('AKN', 'AK', 'AKN', 'King Salomon', 'US', ''),
('AKT', 'Cyprus', 'AKT', 'Akrotiri - RAF', 'GB', ''),
('ALA', 'Kazakhstan', 'ALA', 'Alma Ata', 'KZ', ''),
('ALB', 'NY', 'ALB', 'Albany', 'US', ''),
('ALC', 'Spain', 'ALC', 'Alicante', 'ES', ''),
('ALF', 'Norway', 'ALF', 'Alta', 'NO', ''),
('ALG', 'Algeria', 'ALG', 'Algiers', 'DZ', ''),
('ALH', 'Australia', 'ALH', 'Albany', 'AU', ''),
('ALJ', 'South Africa', 'ALJ', 'Alexander Bay', 'LN', ''),
('ALO', 'IA', 'ALO', 'Waterloo', 'US', ''),
('ALP', 'Syria', 'ALP', 'Aleppo', 'SY', ''),
('ALW', 'WA', 'ALW', 'Walla Walla', 'US', ''),
('ALY', 'El Nhouza Airport', 'ALY', 'Alexandria', 'EG', 'Egypt'),
('AMA', 'TX', 'AMA', 'Amarillo', 'US', ''),
('AMD', 'AMD', 'AMD', '', 'IN', ''),
('AMI', 'Mataram', 'AMI', 'Selaparang Airport', 'ID', 'Indonesia'),
('AMM', 'Queen Alia Intl', 'AMM', 'Amman', 'JO', ''),
('AMQ', 'Ambon', 'AMQ', 'Pattimura', 'ID', 'Indonesia'),
('AMS', 'AMS', 'AMS', '', 'NL', ''),
('ANB', 'AL', 'ANB', 'Anniston', 'LN', ''),
('ANC', 'AK', 'ANC', 'Anchorage', 'US', ''),
('ANK', 'Turkey', 'ANK', 'Ankara', 'LN', ''),
('ANR', 'Belgium', 'ANR', 'Antwerp', 'BE', ''),
('ANU', 'Antigua', 'ANU', 'Antigua', 'AG', ''),
('AOI', 'Italy', 'AOI', 'Ancona', 'IT', ''),
('AOJ', 'Japan', 'AOJ', 'Aomori', 'JP', ''),
('AOK', 'Greece', 'AOK', 'Karpathos', 'GR', ''),
('AOO', 'PA', 'AOO', 'Altoona', 'US', ''),
('AOR', 'AOR', 'AOR', '', 'MY', ''),
('APF', 'FL', 'APF', 'Naples', 'LN', ''),
('APW', 'Samoa', 'APW', 'Apia', 'WS', ''),
('AQJ', 'Jordan', 'AQJ', 'Aqaba', 'JO', ''),
('ARB', 'MI', 'ARB', 'Ann Arbor', 'LN', ''),
('ARD', 'Alor', 'ARD', 'Mali Airport', 'ID', 'Indonesia'),
('ARH', 'Russian Federation', 'ARH', 'Arkhangelsk', 'RU', ''),
('ARK', 'Tanzania', 'ARK', 'Arusha', 'TZ', ''),
('ARN', 'Sweden', 'ARN', 'Stockholm - Arlanda', 'SE', ''),
('ASB', 'Ashkhabat', 'ASB', 'Ashgabat', 'TM', ''),
('ASE', 'CO', 'ASE', 'Aspen Snowmass', 'US', ''),
('ASJ', 'Japan', 'ASJ', 'Amami', 'JP', ''),
('ASK', 'Côte d\'Ivoire (Ivory Coast)', 'ASK', 'Yamoussoukro', 'LN', ''),
('ASP', 'Australia', 'ASP', 'Alice Springs', 'AU', ''),
('ASU', 'Paraguay', 'ASU', 'Asuncion', 'PY', ''),
('ASW', 'Daraw Airport', 'ASW', 'Aswan', 'EG', 'Egypt'),
('ATH', 'Greece', 'ATH', 'Athens', 'GR', ''),
('ATL', 'ATL', 'ATL', '', 'US', ''),
('ATQ', 'India', 'ATQ', 'Amritsar', 'IN', ''),
('ATW', 'WI', 'ATW', 'Appelton/Neenah/Menasha', 'LN', ''),
('ATY', 'SD', 'ATY', 'Watertown', 'US', ''),
('ATZ', 'Egypt', 'ATZ', 'Assiut', 'EG', 'Egypt'),
('AUA', 'Aruba', 'AUA', 'Aruba', 'AW', ''),
('AUG', 'ME', 'AUG', 'Augusta', 'US', ''),
('AUH', 'AUH', 'AUH', '', 'AE', ''),
('AUR', 'France', 'AUR', 'Aurillac', 'FR', ''),
('AUS', 'TX', 'AUS', 'Austin', 'US', ''),
('AVL', 'NC', 'AVL', 'Asheville', 'US', ''),
('AVP', 'PA', 'AVP', 'Wilkes Barre/Scranton', 'US', ''),
('AXA', 'Anguilla', 'AXA', 'Anguilla', 'AI', ''),
('AXT', 'Japan', 'AXT', 'Akita', 'JP', ''),
('AYQ', 'Australia', 'AYQ', 'Ayers Rock', 'AU', ''),
('AYT', 'Turkey', 'AYT', 'Antalya', 'TR', ''),
('AZO', 'MI', 'AZO', 'Kalamazoo/Battle Creek', 'US', ''),
('BAH', 'BAH', 'BAH', '', 'BH', ''),
('BAK', 'Azerbaijan', 'BAK', 'Baku', 'LN', ''),
('BAQ', 'Colombia', 'BAQ', 'Barranquilla', 'CO', ''),
('BBI', 'India', 'BBI', 'Bhubaneswar', 'IN', ''),
('BBT', 'Central African Republic', 'BBT', 'Berberati', 'LN', ''),
('BCN', 'BCN', 'BCN', '', 'ES', ''),
('BDA', 'Bermuda', 'BDA', 'Bermuda', 'BM', ''),
('BDB', 'Australia', 'BDB', 'Bundaberg', 'AU', ''),
('BDJ', 'Banjarmasin', 'BDJ', 'Syamsudin Noor', 'ID', 'Indonesia'),
('BDL', 'CT/Springfield', 'BDL', 'Hartford', 'US', ''),
('BDO', 'Bandung', 'BDO', 'Husein Sastranegara', 'ID', 'Indonesia'),
('BDQ', 'India', 'BDQ', 'Baronda', 'IN', ''),
('BDR', 'CT', 'BDR', 'Bridgeport', 'US', ''),
('BDS', 'Italy', 'BDS', 'Brindisi', 'IT', ''),
('BDU', 'Norway', 'BDU', 'Bardufoss', 'NO', ''),
('BEG', 'Yugoslavia', 'BEG', 'Belgrad (Beograd)', 'RS', ''),
('BEH', 'MI', 'BEH', 'Benton Harbour', 'LN', ''),
('BEJ', 'Tanjung Redep', 'BEJ', 'Berau', 'ID', 'Indonesia'),
('BEL', 'Brazil', 'BEL', 'Belem', 'BR', ''),
('BEN', 'Libya', 'BEN', 'Bengasi', 'LY', ''),
('BEO', 'Australia', 'BEO', 'Newcastle - Belmont', 'LN', ''),
('BER', 'BER', 'BER', '', '', ''),
('BES', 'France', 'BES', 'Brest', 'FR', ''),
('BET', 'AK', 'BET', 'Bethel', 'US', ''),
('BEW', 'Mozambique', 'BEW', 'Beira', 'MZ', ''),
('BEY', 'Lebanon', 'BEY', 'Beirut', 'LB', ''),
('BFD', 'PA/Olean', 'BFD', 'Bradford/Warren', 'US', ''),
('BFL', 'CA', 'BFL', 'Bakersfield', 'LN', ''),
('BFN', 'South Africa', 'BFN', 'Bloemfontein', 'ZA', ''),
('BFO', 'Zimbabwe', 'BFO', 'Buffalo Range', 'LN', ''),
('BFS', 'United Kingdom', 'BFS', 'Belfast International', 'GB', ''),
('BGA', 'Colombia', 'BGA', 'Bucaramanga', 'CO', ''),
('BGF', 'Central African Republic', 'BGF', 'Bangui', 'CF', ''),
('BGI', 'Grantley Adams Int\'l', 'BGI', 'Bridgetown', 'BB', ''),
('BGO', 'Norway', 'BGO', 'Bergen', 'NO', ''),
('BGR', 'ME', 'BGR', 'Bangor', 'US', ''),
('BGW', 'Al Muthana', 'BGW', 'Bagdad', 'IQ', ''),
('BGY', 'Italy', 'BGY', 'Bergamo', 'IT', ''),
('BHD', 'United Kingdom', 'BHD', 'Belfast - Harbour', 'GB', ''),
('BHE', 'New Zealand', 'BHE', 'Blenheim', 'NZ', ''),
('BHM', 'AL', 'BHM', 'Birmingham', 'US', ''),
('BHO', 'India', 'BHO', 'Bhopal', 'IN', ''),
('BHQ', 'Australia', 'BHQ', 'Broken Hill', 'AU', ''),
('BHV', 'Pakistan', 'BHV', 'Bahawalpur', 'PK', ''),
('BHX', 'United Kingdom', 'BHX', 'Birmingham', 'GB', ''),
('BIA', 'France', 'BIA', 'Bastia', 'FR', ''),
('BIK', 'Biak', 'BIK', 'Frans Kaisiepo', 'ID', 'Indonesia'),
('BIL', 'MT', 'BIL', 'Billings', 'US', ''),
('BIO', 'Spain', 'BIO', 'Bilbao', 'ES', ''),
('BIQ', 'France', 'BIQ', 'Biarritz', 'FR', ''),
('BIS', 'ND', 'BIS', 'Bismarck/Mandan', 'US', ''),
('BIV', 'Central African Republic', 'BIV', 'Bria', 'LN', ''),
('BJI', 'MN', 'BJI', 'Bemidji', 'LN', ''),
('BJL', 'Gambia', 'BJL', 'Banjul', 'GM', ''),
('BJM', 'Burundi', 'BJM', 'Bujumbura', 'BI', ''),
('BJW', 'Bajawa', 'BJW', 'Turelelo Soa Airport', 'ID', 'Indonesia'),
('BJX', 'Mexico', 'BJX', 'Leon', 'MX', ''),
('BJZ', 'Spain', 'BJZ', 'Badajoz', 'ES', ''),
('BKI', 'BKI', 'BKI', '', 'MY', ''),
('BKK', 'BKK', 'BKK', '', 'TH', ''),
('BKL', 'Burke Lakefront', 'BKL', 'Cleveland', 'LN', ''),
('BKO', 'Mali', 'BKO', 'Bamako', 'ML', ''),
('BKS', 'Fatmawati Soekarno', 'BKS', 'Bengkulu', 'ID', 'Indonesia'),
('BKW', 'WV', 'BKW', 'Beckley', 'US', ''),
('BKX', 'SD', 'BKX', 'Brookings', 'US', ''),
('BLA', 'Venezuela', 'BLA', 'Barcelona', 'VE', ''),
('BLF', 'WV', 'BLF', 'Bluefield', 'US', ''),
('BLI', 'WA', 'BLI', 'Bellingham', 'US', ''),
('BLL', 'Denmark', 'BLL', 'Billund', 'DK', ''),
('BLQ', 'Italy', 'BLQ', 'Bologna', 'IT', ''),
('BLR', 'India', 'BLR', 'Bangalore', 'IN', ''),
('BLT', 'Australia', 'BLT', 'Blackwater', 'AU', ''),
('BLZ', 'Malawi', 'BLZ', 'Blantyre', 'MW', ''),
('BMA', 'Sweden', 'BMA', 'Stockholm - Bromma', 'SE', ''),
('BME', 'Australia', 'BME', 'Broome', 'AU', ''),
('BMG', 'IN', 'BMG', 'Bloomington', 'LN', ''),
('BMI', 'IL', 'BMI', 'Bloomington', 'US', ''),
('BMP', 'Australia', 'BMP', 'Brampton Island', 'LN', ''),
('BMU', 'Bima', 'BMU', 'Muhammad Salahuddin', 'ID', 'Indonesia'),
('BNA', 'TN', 'BNA', 'Nashville', 'US', ''),
('BNE', 'BNE', 'BNE', '', 'AU', ''),
('BNK', 'Australia', 'BNK', 'Ballina', 'AU', ''),
('BNN', 'Norway', 'BNN', 'Broennoeysund', 'NO', ''),
('BNP', 'Pakistan', 'BNP', 'Bannu', 'PK', ''),
('BOB', 'French Polynesia', 'BOB', 'Bora Bora', 'PF', ''),
('BOD', 'France', 'BOD', 'Bordeaux', 'FR', ''),
('BOG', 'Colombia', 'BOG', 'Bogota', 'CO', ''),
('BOI', 'ID', 'BOI', 'Boise', 'US', ''),
('BOJ', 'Bulgaria', 'BOJ', 'Bourgas/Burgas', 'BG', ''),
('BOM', 'BOM', 'BOM', '', 'IN', ''),
('BON', 'Netherlands Antilles', 'BON', 'Bonaire', 'BQ', ''),
('BOO', 'Norway', 'BOO', 'Bodo', 'NO', ''),
('BOS', 'MA', 'BOS', 'Boston - Logan', 'US', ''),
('BOY', 'Burkina Faso', 'BOY', 'Bobo/Dioulasso', 'BF', ''),
('BPN', 'Balikpapan', 'BPN', 'Sepinggan', 'ID', 'Indonesia'),
('BPT', 'TX', 'BPT', 'Beaumont/Pt. Arthur', 'US', ''),
('BQK', 'GA', 'BQK', 'Brunswick', 'US', ''),
('BQN', 'Puerto Rico', 'BQN', 'Aguadilla', 'PR', ''),
('BRC', 'Argentina', 'BRC', 'San Carlos de Bariloche', 'AR', ''),
('BRD', 'MN', 'BRD', 'Brainerd', 'US', ''),
('BRE', 'Germany', 'BRE', 'Bremen', 'DE', ''),
('BRI', 'Italy', 'BRI', 'Bari', 'IT', ''),
('BRL', 'IA', 'BRL', 'Burlington', 'US', ''),
('BRN', 'Switzerland', 'BRN', 'Bern', 'CH', ''),
('BRS', 'United Kingdom', 'BRS', 'Bristol', 'GB', ''),
('BRU', 'Belgium', 'BRU', 'Brussels', 'BE', ''),
('BSB', 'Brazil', 'BSB', 'Brasilia', 'BR', ''),
('BSL', 'Switzerland', 'BSL', 'Basel', 'FR', ''),
('BSR', 'Basrah', 'BSR', 'Basra', 'IQ', ''),
('BTH', 'Batam', 'BTH', 'Hang Nadim', 'ID', 'Indonesia'),
('BTJ', 'Banda Aceh', 'BTJ', 'Sultan Iskandarmuda', 'ID', 'Indonesia'),
('BTM', 'MT', 'BTM', 'Butte', 'US', ''),
('BTR', 'La', 'BTR', 'Baton Rouge', 'US', ''),
('BTS', 'Slovakia', 'BTS', 'Bratislava', 'SK', ''),
('BTU', 'Malaysia', 'BTU', 'Bintulu', 'MY', ''),
('BTV', 'VT', 'BTV', 'Burlington', 'US', ''),
('BTW', 'Batulicin', 'BTW', 'Bersujud', 'ID', 'Indonesia'),
('BUD', 'Ferihegy', 'BUD', 'Budapest', 'HU', ''),
('BUF', 'NY', 'BUF', 'Buffalo/Niagara Falls', 'US', ''),
('BUG', 'Angola', 'BUG', 'Bengueka', 'LN', ''),
('BUH', 'BUH', 'BUH', '', '', ''),
('BUQ', 'Zimbabwe', 'BUQ', 'Bulawayo', 'ZW', ''),
('BUR', 'CA', 'BUR', 'Burbank', 'US', ''),
('BUW', 'Baubau', 'BUW', 'Betoambari', 'ID', 'Indonesia'),
('BVB', 'Brazil', 'BVB', 'Boa Vista', 'BR', ''),
('BWI', 'USA', 'BWI', 'Baltimore Washington Int\'l Airport; MD', 'US', ''),
('BWN', 'Brunei', 'BWN', 'Bandar Seri Begawan', 'BN', ''),
('BWT', 'Australia', 'BWT', 'Burnie (Wynyard)', 'AU', ''),
('BWX', 'Banyuwangi', 'BWX', 'Blimbing Sari', 'ID', 'Indonesia'),
('BXO', 'Guinea Bissau', 'BXO', 'Bissau', 'LN', ''),
('BXS', 'CA', 'BXS', 'Borrego Springs', 'LN', ''),
('BYK', 'Ivory Coast', 'BYK', 'Bouake', 'CI', ''),
('BYU', 'Germany', 'BYU', 'Bayreuth', 'LN', ''),
('BZE', 'Belize', 'BZE', 'Belize City', 'BZ', ''),
('BZL', 'Bangladesh', 'BZL', 'Barisal', 'BD', ''),
('BZN', 'MT', 'BZN', 'Bozeman', 'US', ''),
('BZV', 'Congo', 'BZV', 'Brazzaville', 'CG', ''),
('CAB', 'Angola', 'CAB', 'Cabinda', 'AO', ''),
('CAE', 'SC', 'CAE', 'Columbia', 'US', ''),
('CAG', 'Italy', 'CAG', 'Cagliari', 'IT', ''),
('CAI', 'Egypt', 'CAI', 'Cairo Int\'l', 'EG', 'Egypt'),
('CAK', 'OH', 'CAK', 'Akron', 'US', ''),
('CAN', 'CAN', 'CAN', '', 'CN', ''),
('CAY', 'French Guayana', 'CAY', 'Cayenne', 'GF', ''),
('CBB', 'Bolivia', 'CBB', 'Cochabamba', 'BO', ''),
('CBG', 'United Kingdom', 'CBG', 'Cambrigde', 'LN', ''),
('CBR', 'Australia', 'CBR', 'Canberra', 'AU', ''),
('CCJ', 'India', 'CCJ', 'Calicut', 'IN', ''),
('CCR', 'CA', 'CCR', 'Concord', 'LN', ''),
('CCS', 'Venezuela', 'CCS', 'Caracas', 'VE', ''),
('CCU', 'India', 'CCU', 'Calcutta (Kolkata) - Netaji Subhas Chandra', 'IN', ''),
('CCZ', 'Bahamas', 'CCZ', 'Chub Cay', 'BS', ''),
('CDC', 'UT', 'CDC', 'Cedar City', 'US', ''),
('CDG', 'CDG', 'CDG', '', 'FR', ''),
('CDV', 'AK', 'CDV', 'Cordova', 'US', ''),
('CEB', 'CEB', 'CEB', '', 'PH', ''),
('CEC', 'CA', 'CEC', 'Crescent City', 'US', ''),
('CED', 'Australia', 'CED', 'Ceduna', 'AU', ''),
('CEN', 'Mexico', 'CEN', 'Ciudad Obregon', 'MX', ''),
('CES', 'Australia', 'CES', 'Cessnock', 'LN', ''),
('CFE', 'France', 'CFE', 'Clermont Ferrand', 'FR', ''),
('CFG', 'Canada', 'CFG', 'Cienfuegos', 'CU', ''),
('CFS', 'Australia', 'CFS', 'Coffs Harbour', 'AU', ''),
('CFU', 'Greece', 'CFU', 'Corfu', 'GR', ''),
('CGA', 'AK', 'CGA', 'Craig', 'LN', ''),
('CGB', 'Brazil', 'CGB', 'Cuiaba', 'BR', ''),
('CGH', 'Brazil', 'CGH', 'Sao Paulo - Congonhas', 'BR', ''),
('CGK', 'Jakarta', 'CGK', 'Soekarno Hatta Intl', 'ID', 'Indonesia'),
('CGN', 'Germany', 'CGN', 'Cologne (Koeln)/Bonn', 'DE', ''),
('CGO', 'CGO', 'CGO', '', 'CN', ''),
('CGP', 'Bangladesh', 'CGP', 'Chittagong', 'BD', ''),
('CGQ', 'Jilin', 'CGQ', 'Changchun', 'CN', ''),
('CGR', 'Brazil', 'CGR', 'Campo Grande', 'BR', ''),
('CHA', 'TN', 'CHA', 'Chattanooga', 'US', ''),
('CHC', 'New Zealand', 'CHC', 'Christchurch', 'NZ', ''),
('CHI', 'IL', 'CHI', 'Chicago', 'LN', ''),
('CHO', 'VA', 'CHO', 'Charlottesville', 'US', ''),
('CHQ', 'Greece', 'CHQ', 'Chania', 'GR', ''),
('CHS', 'SC', 'CHS', 'Charleston', 'US', ''),
('CIA', 'Italy', 'CIA', 'Rome - Ciampino', 'IT', ''),
('CIC', 'CA', 'CIC', 'Chico', 'LN', ''),
('CID', 'IA', 'CID', 'Cedar Rapids', 'US', ''),
('CIP', 'Zambia', 'CIP', 'Chipata', 'ZM', ''),
('CJB', 'India', 'CJB', 'Coimbatore', 'IN', ''),
('CJL', 'Pakistan', 'CJL', 'Chitral', 'PK', ''),
('CJS', 'Mexico', 'CJS', 'Ciudad Juarez', 'MX', ''),
('CKB', 'WV', 'CKB', 'Clarksburg', 'US', ''),
('CKG', 'CKG', 'CKG', '', 'CN', ''),
('CKY', 'Guinea', 'CKY', 'Conakry', 'GN', ''),
('CLD', 'CA', 'CLD', 'Carlsbad', 'LN', ''),
('CLE', 'Hopkins', 'CLE', 'Cleveland', 'US', ''),
('CLL', 'TX', 'CLL', 'College Station/Bryan', 'US', ''),
('CLM', 'WA', 'CLM', 'Port Angeles', 'US', ''),
('CLO', 'Colombia', 'CLO', 'Cali', 'CO', ''),
('CLQ', 'Mexico', 'CLQ', 'Colima', 'MX', ''),
('CLT', 'NC', 'CLT', 'Charlotte', 'US', ''),
('CLY', 'France', 'CLY', 'Calvi', 'FR', ''),
('CMB', 'CMB', 'CMB', '', 'LK', ''),
('CME', 'Mexico', 'CME', 'Ciudad Del Carmen', 'MX', ''),
('CMF', 'France', 'CMF', 'Chambery', 'FR', ''),
('CMH', 'OH', 'CMH', 'Columbus', 'US', ''),
('CMI', 'IL', 'CMI', 'Champaign', 'US', ''),
('CMN', 'Mohamed V', 'CMN', 'Casablanca', 'MA', ''),
('CMX', 'MI', 'CMX', 'Hancock', 'US', ''),
('CND', 'Romania', 'CND', 'Constanza', 'RO', ''),
('CNF', 'Brazil', 'CNF', 'Belo Horizonte', 'BR', ''),
('CNS', 'Australia', 'CNS', 'Cairns', 'AU', ''),
('CNX', 'CNX', 'CNX', '', 'TH', ''),
('COD', 'WY', 'COD', 'Cody/Powell/Yellowstone', 'LN', ''),
('COK', 'India', 'COK', 'Cochin', 'IN', ''),
('COO', 'Benin', 'COO', 'Cotonou', 'BJ', ''),
('COR', 'Argentina', 'COR', 'Cordoba', 'AR', ''),
('COS', 'CO', 'COS', 'Colorado Springs', 'US', ''),
('CPD', 'Australia', 'CPD', 'Coober Pedy', 'AU', ''),
('CPH', 'CPH', 'CPH', '', 'DK', ''),
('CPR', 'WY', 'CPR', 'Casper', 'US', ''),
('CPT', 'South Africa', 'CPT', 'Cape Town', 'ZA', ''),
('CRP', 'TX', 'CRP', 'Corpus Christi', 'US', ''),
('CRW', 'WV', 'CRW', 'Charleston', 'US', ''),
('CSG', 'GA', 'CSG', 'Columbus', 'US', ''),
('CSX', 'CSX', 'CSX', '', 'CN', ''),
('CTA', 'Italy', 'CTA', 'Catania', 'IT', ''),
('CTG', 'Colombia', 'CTG', 'Catagena', 'CO', ''),
('CTN', 'Australia', 'CTN', 'Cooktown', 'AU', ''),
('CTS', 'CTS', 'CTS', '', 'JP', ''),
('CTU', 'CTU', 'CTU', '', 'CN', ''),
('CUL', 'Mexico', 'CUL', 'Culiacan', 'MX', ''),
('CUN', 'Mexico', 'CUN', 'Cancun', 'MX', ''),
('CUR', 'Netherlands Antilles', 'CUR', 'Curacao', 'CW', ''),
('CUU', 'Gen Fierro Villalobos', 'CUU', 'Chihuahua', 'MX', ''),
('CVG', 'OH', 'CVG', 'Cincinnati', 'US', ''),
('CVM', 'Mexico', 'CVM', 'Ciudad Victoria', 'MX', ''),
('CVQ', 'Australia', 'CVQ', 'Carnarvon', 'AU', ''),
('CWA', 'WI', 'CWA', 'Wausau/Stevens Point', 'LN', ''),
('CWB', 'Brazil', 'CWB', 'Curitiba', 'BR', ''),
('CWL', 'United Kingdom', 'CWL', 'Cardiff', 'GB', ''),
('CXI', 'Iceland', 'CXI', 'Christmas Line', 'KI', ''),
('CYS', 'WY', 'CYS', 'Cheyenne', 'US', ''),
('CZL', 'Algeria', 'CZL', 'Constantine', 'DZ', ''),
('CZM', 'Mexico', 'CZM', 'Cozmel', 'MX', ''),
('DAB', 'FL', 'DAB', 'Daytona Beach', 'US', ''),
('DAC', 'DAC', 'DAC', '', 'BG', ''),
('DAL', 'Love Field', 'DAL', 'Dallas', 'US', ''),
('DAM', 'International', 'DAM', 'Damascus', 'SY', ''),
('DAR', 'Tanzania', 'DAR', 'Dar es Salam (Daressalam)', 'TZ', ''),
('DAY', 'OH', 'DAY', 'Dayton', 'US', ''),
('DBO', 'Australia', 'DBO', 'Dubbo', 'AU', ''),
('DBQ', 'IA', 'DBQ', 'Dubuque', 'US', ''),
('DBV', 'Croatia (Hrvatska)', 'DBV', 'Dubrovnik', 'HR', ''),
('DCA', 'USA', 'DCA', 'Washington DC - Ronald Reagan National', 'US', ''),
('DEC', 'IL', 'DEC', 'Decatur', 'US', ''),
('DEL', 'DEL', 'DEL', '', 'IN', ''),
('DEN', 'DEN', 'DEN', '', 'US', ''),
('DET', 'MI', 'DET', 'Detroit City', 'LN', ''),
('DEX', 'Dekai', 'DEX', 'Yahukimo', 'ID', 'Indonesia'),
('DFW', 'DFW', 'DFW', '', 'US', ''),
('DHA', 'Saudi Arabia', 'DHA', 'Dhahran', 'LN', ''),
('DHN', 'AL', 'DHN', 'Dothan', 'US', ''),
('DIL', 'DILI', 'DIL', 'Presidente Nicolau Lobato', 'ID', 'Indonesia'),
('DJB', 'Jambi', 'DJB', 'Sultan Thaha', 'ID', 'Indonesia'),
('DJE', 'Tunisia', 'DJE', 'Djerba', 'TN', ''),
('DJJ', 'Jayapura', 'DJJ', 'Sentani', 'ID', 'Indonesia'),
('DJO', 'Ivory Coast', 'DJO', 'Daloa', 'LN', ''),
('DKI', 'Australia', 'DKI', 'Dunk Iceland', 'LN', ''),
('DKR', 'Senegal', 'DKR', 'Dakar', 'SN', ''),
('DLA', 'Cameroon', 'DLA', 'Douala', 'CM', ''),
('DLC', 'DLC', 'DLC', '', 'CN', ''),
('DLG', 'AK', 'DLG', 'Dillingham', 'US', ''),
('DLH', 'MN/Superior', 'DLH', 'Duluth', 'US', ''),
('DLM', 'Turkey', 'DLM', 'Dalaman', 'TR', ''),
('DME', 'Russia', 'DME', 'Moscow - Domodedovo', 'RU', ''),
('DMK', 'DMK', 'DMK', '', 'TH', ''),
('DMM', 'King Fahad Int\'l', 'DMM', 'Dammam', 'SA', ''),
('DNR', 'France', 'DNR', 'Dinard', 'FR', ''),
('DOB', 'Dobo', 'DOB', 'Dobo Airport', 'ID', 'Indonesia'),
('DOH', 'DOH', 'DOH', '', 'QA', ''),
('DPO', 'Australia', 'DPO', 'Devonport', 'AU', ''),
('DPS', 'Denpasar', 'DPS', 'Bali Ngurah Rai', 'ID', 'Indonesia'),
('DRB', 'Australia', 'DRB', 'Derby', 'LN', ''),
('DRO', 'CO', 'DRO', 'Durango', 'LN', ''),
('DRS', 'Germany', 'DRS', 'Dresden', 'DE', ''),
('DRW', 'Australia', 'DRW', 'Darwin', 'AU', ''),
('DSK', 'Pakistan', 'DSK', 'Dera Ismail Khan', 'PK', ''),
('DSM', 'IA', 'DSM', 'Des Moines', 'US', ''),
('DTB', 'Siborong-Borong', 'DTB', 'Silangit', 'ID', 'Indonesia'),
('DTM', 'Germany', 'DTM', 'Dortmund', 'DE', ''),
('DTW', 'MI', 'DTW', 'Detroit Metropolitan Wayne County Airport', 'US', ''),
('DUB', 'Ireland', 'DUB', 'Dublin', 'IE', ''),
('DUD', 'New Zealand', 'DUD', 'Dunedin', 'NZ', ''),
('DUJ', 'PA', 'DUJ', 'Dubois', 'US', ''),
('DUM', 'Dumai', 'DUM', 'Pinang Kampai', 'ID', 'Indonesia'),
('DUR', 'South Africa', 'DUR', 'Durban', 'ZA', ''),
('DUS', 'DUS', 'DUS', '', 'DE', ''),
('DUT', 'AK', 'DUT', 'Dutch Harbor', 'US', ''),
('DVL', 'ND', 'DVL', 'Devils Lake', 'LN', ''),
('DXB', 'Dubai', 'DXB', 'Dubai Intl', 'AE', ''),
('DYU', 'Tadschikistan', 'DYU', 'Dushanbe (Duschanbe)', 'TJ', ''),
('DZA', 'Mayotte', 'DZA', 'Dzaoudzi', 'YT', ''),
('EAP', 'Switzerland/France', 'EAP', 'Basel/Mulhouse', 'LN', ''),
('EAS', 'Spain', 'EAS', 'San Sebastian', 'ES', ''),
('EAT', 'WA', 'EAT', 'Wenatchee', 'LN', ''),
('EAU', 'WI', 'EAU', 'Eau Clarie', 'US', ''),
('EBB', 'Uganda', 'EBB', 'Entebbe', 'UG', ''),
('EBJ', 'Denmark', 'EBJ', 'Esbjerg', 'DK', ''),
('EBU', 'France', 'EBU', 'St. Etienne', 'FR', ''),
('EDI', 'United Kingdom', 'EDI', 'Edinburgh', 'GB', ''),
('EDR', 'Australia', 'EDR', 'Emerald', 'AU', ''),
('EGE', 'CO', 'EGE', 'Vail', 'US', ''),
('EGS', 'Iceland', 'EGS', 'Egilsstadir', 'IS', ''),
('EIN', 'Netherlands', 'EIN', 'Eindhoven', 'NL', ''),
('EIS', 'Virgin Islands', 'EIS', 'Beef Island', 'VG', ''),
('EKI', 'IN', 'EKI', 'Elkhart', 'LN', ''),
('EKO', 'NV', 'EKO', 'Elko', 'US', ''),
('ELH', 'Bahamas', 'ELH', 'North Eleuthera', 'BS', ''),
('ELL', 'South Africa', 'ELL', 'Ellisras', 'LN', ''),
('ELM', 'NY', 'ELM', 'Elmira', 'US', ''),
('ELP', 'TX', 'ELP', 'El Paso', 'US', ''),
('ELS', 'South Africa', 'ELS', 'East London', 'ZA', ''),
('ELY', 'NV', 'ELY', 'Ely', 'LN', ''),
('EMA', 'United Kingdom', 'EMA', 'Derby (East Midlands)', 'GB', ''),
('EMD', 'Australia', 'EMD', 'Emerald', 'AU', ''),
('ENA', 'AK', 'ENA', 'Kenai', 'LN', ''),
('ENC', 'France', 'ENC', 'Nancy', 'LN', ''),
('ENE', 'Ende', 'ENE', 'H Hasan Aroeboesman', 'ID', 'Indonesia'),
('ENF', 'Finland', 'ENF', 'Enontekioe', 'FI', ''),
('EPR', 'Australia', 'EPR', 'Esperance', 'AU', ''),
('ERF', 'Germany', 'ERF', 'Erfurt', 'DE', ''),
('ERI', 'PA', 'ERI', 'Erie', 'US', ''),
('ERS', 'Namibia', 'ERS', 'Windhoek - Eros', 'NA', ''),
('ESC', 'MI', 'ESC', 'Escabana', 'LN', ''),
('ESF', 'La', 'ESF', 'Alexandria', 'LN', ''),
('ETH', 'Israel', 'ETH', 'Elat', 'IL', ''),
('EUG', 'OR', 'EUG', 'Eugene', 'US', ''),
('EVE', 'Norway', 'EVE', 'Evenes', 'NO', ''),
('EVN', 'Jerevan)', 'EVN', 'Eriwan (Yerevan', 'AM', ''),
('EVV', 'IN', 'EVV', 'Evansville', 'US', ''),
('EWN', 'NC', 'EWN', 'New Bern', 'US', ''),
('EWR', 'NJ', 'EWR', 'New York - Newark', 'US', ''),
('EYW', 'FL', 'EYW', 'Key West', 'US', ''),
('EZE', 'Ezeiza Int\'l Airport', 'EZE', 'Buenos Aires', 'AR', ''),
('FAE', 'Denmark', 'FAE', 'Faroer', 'FO', ''),
('FAI', 'AK', 'FAI', 'Fairbanks', 'US', ''),
('FAO', 'Portugal', 'FAO', 'Faro', 'PT', ''),
('FAR', 'ND', 'FAR', 'Fargo', 'US', ''),
('FAT', 'CA', 'FAT', 'Fresno', 'US', ''),
('FAY', 'NC', 'FAY', 'Fayetteville/Ft. Bragg', 'US', ''),
('FBM', 'Zaire', 'FBM', 'Lumbumbashi', 'CD', ''),
('FBU', 'Norway', 'FBU', 'Oslo - Fornebu', 'LN', ''),
('FCA', 'MT', 'FCA', 'Kalispell', 'US', ''),
('FCO', 'FCO', 'FCO', '', 'IT', ''),
('FDF', 'Martinique', 'FDF', 'Fort de France', 'MQ', ''),
('FDH', 'Germany', 'FDH', 'Friedrichshafen', 'DE', ''),
('FEZ', 'Morocco', 'FEZ', 'Fes', 'MA', ''),
('FHU', 'AZ', 'FHU', 'Fort Huachuca/Sierra Vista', 'US', ''),
('FIH', 'Congo (Zaire)', 'FIH', 'Kinshasa - N\'Djili', 'CD', ''),
('FJR', 'UAE', 'FJR', 'Alfujairah (Fujairah)', 'AE', ''),
('FKB', 'Germany', 'FKB', 'Karlsruhe-Baden - Soellingen', 'DE', ''),
('FKI', 'Zaire', 'FKI', 'Kisangani', 'CD', ''),
('FKL', 'PA', 'FKL', 'Franklin/Oil City', 'LN', ''),
('FKQ', 'Fak Fak', 'FKQ', 'Fak Fak', 'ID', 'Indonesia'),
('FKS', 'Fukushima Airport', 'FKS', 'Fukushima-shi', 'JP', ''),
('FLG', 'AZ', 'FLG', 'Flagstaff', 'US', ''),
('FLL', 'FL', 'FLL', 'Fort Lauderdale/Hollywood', 'US', ''),
('FLN', 'Brazil', 'FLN', 'Florianopolis', 'BR', ''),
('FLO', 'SC', 'FLO', 'Florence', 'US', ''),
('FLR', 'Italy', 'FLR', 'Florence', 'IT', ''),
('FLZ', 'Sibolga', 'FLZ', 'Ferdinand Lumban Tobing', 'ID', 'Indonesia'),
('FMN', 'NM', 'FMN', 'Farmington', 'LN', ''),
('FMO', 'Germany', 'FMO', 'Muenster/Osnabrueck', 'DE', ''),
('FMY', 'Metropolitan Area', 'FMY', 'Fort Myers', 'LN', ''),
('FNA', 'Sierra Leone', 'FNA', 'Freetown', 'SL', ''),
('FNC', 'Portugal', 'FNC', 'Funchal', 'PT', ''),
('FNI', 'France', 'FNI', 'Nimes', 'FR', ''),
('FNJ', 'North Korea', 'FNJ', 'Pyongyang - Sunan', 'KP', ''),
('FNT', 'MI', 'FNT', 'Flint', 'US', ''),
('FOC', 'FOC', 'FOC', '', 'CN', ''),
('FOD', 'IA', 'FOD', 'Fort Dodge', 'US', ''),
('FOR', 'Brazil', 'FOR', 'Fortaleza', 'BR', ''),
('FPO', 'Bahamas', 'FPO', 'Freeport', 'BS', ''),
('FRA', 'FRA', 'FRA', '', 'DE', ''),
('FRJ', 'France', 'FRJ', 'Frejus', 'LN', ''),
('FRO', 'Norway', 'FRO', 'Floro', 'NO', ''),
('FRW', 'Botswana', 'FRW', 'Francistown', 'BW', ''),
('FSC', 'France', 'FSC', 'Figari', 'FR', ''),
('FSD', 'SD', 'FSD', 'Sioux Falls', 'US', ''),
('FSM', 'AR', 'FSM', 'Fort Smith', 'US', ''),
('FSP', 'NF', 'FSP', 'St. Pierre', 'PM', ''),
('FUE', 'Spain', 'FUE', 'Fuerteventura', 'ES', ''),
('FUK', 'FUK', 'FUK', '', 'JP', ''),
('FUT', 'Wallis and Futuna Islands', 'FUT', 'Futuna', 'WF', ''),
('FWA', 'IN', 'FWA', 'Fort Wayne', 'US', ''),
('FYV', 'AR', 'FYV', 'Fayetteville', 'LN', ''),
('GAD', 'AL', 'GAD', 'Gadsden', 'LN', ''),
('GAJ', 'Junmachi', 'GAJ', 'Yamagata', 'JP', ''),
('GAU', 'India', 'GAU', 'Guwahati', 'IN', ''),
('GBE', 'Botswana', 'GBE', 'Gaborone', 'BW', ''),
('GCC', 'WY', 'GCC', 'Gilette', 'US', ''),
('GCI', 'United Kingdom', 'GCI', 'Guernsey', 'GG', ''),
('GCM', 'Cayman Islands', 'GCM', 'Grand Cayman', 'KY', ''),
('GCN', 'AZ', 'GCN', 'Grand Canyon', 'US', ''),
('GDL', 'Mexico', 'GDL', 'Guadalajara', 'MX', ''),
('GDN', 'Poland', 'GDN', 'Gdansk', 'PL', ''),
('GDV', 'MT', 'GDV', 'Glendive', 'LN', ''),
('GEG', 'WA', 'GEG', 'Spokane', 'US', ''),
('GEO', 'Guyana', 'GEO', 'Georgetown', 'GY', ''),
('GET', 'Australia', 'GET', 'Geraldton', 'AU', ''),
('GEX', 'Australia', 'GEX', 'Geelong', 'LN', ''),
('GFF', 'Australia', 'GFF', 'Griffith', 'AU', ''),
('GFK', 'ND', 'GFK', 'Grand Forks', 'US', ''),
('GGG', 'TX', 'GGG', 'Longview/Kilgore', 'US', ''),
('GGW', 'MT', 'GGW', 'Glasgow', 'US', ''),
('GHB', 'Bahamas', 'GHB', 'Govenors Harbour', 'BS', ''),
('GIB', 'Gibraltar', 'GIB', 'Gibraltar', 'GI', ''),
('GIG', 'Brazil', 'GIG', 'Rio de Janeiro - Galeao', 'BR', ''),
('GIL', 'Pakistan', 'GIL', 'Gilgit', 'PK', ''),
('GJT', 'CO', 'GJT', 'Grand Junction', 'US', ''),
('GKL', 'Australia', 'GKL', 'Great Keppel Island', 'LN', ''),
('GLA', 'GLA', 'GLA', '', 'UK', ''),
('GLH', 'MS', 'GLH', 'Greenville', 'US', ''),
('GLT', 'Australia', 'GLT', 'Gladstone', 'AU', ''),
('GLX', 'Galela', 'GLX', 'Gamar Malamo', 'ID', 'Indonesia'),
('GMP', 'GMP', 'GMP', '', 'KR', ''),
('GNB', 'France', 'GNB', 'Grenoble', 'FR', ''),
('GND', 'Grenada', 'GND', 'Grenada', 'GD', ''),
('GNS', 'Gunung Sitoli', 'GNS', 'Binaka', 'ID', 'Indonesia'),
('GNV', 'FL', 'GNV', 'Gainesville', 'US', ''),
('GOA', 'Italy', 'GOA', 'Genoa', 'IT', ''),
('GOI', 'India', 'GOI', 'Goa', 'IN', ''),
('GON', 'CT', 'GON', 'Groton/New London', 'LN', ''),
('GOT', 'Sweden', 'GOT', 'Goteborg', 'SE', ''),
('GOU', 'Cameroon', 'GOU', 'Garoua', 'CM', ''),
('GOV', 'Australia', 'GOV', 'Gove (Nhulunbuy)', 'AU', ''),
('GOZ', 'Bulgaria', 'GOZ', 'Gorna', 'LN', ''),
('GPA', 'Greece', 'GPA', 'Araxos', 'GR', ''),
('GPT', 'MS', 'GPT', 'Gulfport/Biloxi', 'US', ''),
('GPZ', 'MN', 'GPZ', 'Grand Rapids', 'LN', ''),
('GRB', 'WI', 'GRB', 'Green Bay', 'US', ''),
('GRJ', 'South Africa', 'GRJ', 'George', 'ZA', ''),
('GRO', 'Spain', 'GRO', 'Gerona', 'ES', ''),
('GRR', 'MI', 'GRR', 'Grand Rapids', 'US', ''),
('GRU', 'GRU', 'GRU', '', 'BR', ''),
('GRX', 'Spain', 'GRX', 'Granada', 'ES', ''),
('GRZ', 'Austria', 'GRZ', 'Graz', 'AT', ''),
('GSO', 'NC', 'GSO', 'Greensboro/Winston Salem', 'US', ''),
('GSP', 'SC', 'GSP', 'Greenville/Spartanburg', 'US', ''),
('GTE', 'Australia', 'GTE', 'Groote Eyeland', 'AU', ''),
('GTF', 'MT', 'GTF', 'Great Falls', 'US', ''),
('GTI', 'Australia', 'GTI', 'Groote Eylandt', 'LN', ''),
('GTN', 'New Zealand', 'GTN', 'Mount Cook', 'LN', ''),
('GTO', 'Gorontalo', 'GTO', 'Jalaluddin', 'ID', 'Indonesia'),
('GUA', 'Guatemala', 'GUA', 'Guatemala City', 'GT', ''),
('GUC', 'CO', 'GUC', 'Gunnison/Crested Butte', 'LN', ''),
('GUM', 'Guam', 'GUM', 'Guam', 'GU', ''),
('GVA', 'Switzerland', 'GVA', 'Geneva', 'CH', ''),
('GWD', 'Pakistan', 'GWD', 'Gwadar', 'PK', ''),
('GWE', 'Zimbabwe', 'GWE', 'Gweru', 'LN', ''),
('GWT', 'Germany', 'GWT', 'Westerland', 'DE', ''),
('GWY', 'Ireland', 'GWY', 'Galway', 'IE', ''),
('GYE', 'Ecuador', 'GYE', 'Guayaquil', 'EC', ''),
('GYN', 'Brazil', 'GYN', 'Goiania', 'BR', ''),
('HAC', 'Japan', 'HAC', 'Hachijo Jima', 'JP', ''),
('HAH', 'Comoros (Comores)', 'HAH', 'Moroni - Prince Said Ibrahim', 'KM', ''),
('HAJ', 'Germany', 'HAJ', 'Hannover', 'DE', ''),
('HAK', 'HAK', 'HAK', '', 'CN', ''),
('HAM', 'Germany', 'HAM', 'Hamburg - Fuhlsbuettel', 'DE', ''),
('HAN', 'HAN', 'HAN', '', 'VN', ''),
('HAU', 'Norway', 'HAU', 'Haugesund', 'NO', ''),
('HAV', 'Cuba', 'HAV', 'Havana - José Martí Int\'l', 'CU', ''),
('HBA', 'Australia', 'HBA', 'Hobart', 'AU', ''),
('HDD', 'Pakistan', 'HDD', 'Hyderabad', 'PK', ''),
('HDN', 'CO', 'HDN', 'Steamboat Springs', 'LN', ''),
('HDY', 'HDY', 'HDY', '', 'TH', ''),
('HEL', 'Finland', 'HEL', 'Helsinki - Vantaa', 'FI', ''),
('HER', 'Greece', 'HER', 'Heraklion', 'GR', ''),
('HEW', 'Hellinikon Airport', 'HEW', 'Athens', 'LN', ''),
('HFA', 'Israel', 'HFA', 'Haifa', 'IL', ''),
('HFT', 'Norway', 'HFT', 'Hammerfest', 'NO', ''),
('HGH', 'HGH', 'HGH', '', 'CN', ''),
('HGO', 'Ivory Coast', 'HGO', 'Korhogo', 'LN', ''),
('HHH', 'SC', 'HHH', 'Hilton Head Island', 'LN', ''),
('HHQ', 'HHQ', 'HHQ', '', 'TH', ''),
('HIB', 'MN', 'HIB', 'Hibbing', 'US', ''),
('HII', 'AZ', 'HII', 'Lake Havasu City', 'LN', ''),
('HIJ', 'HIJ', 'HIJ', '', 'JP', ''),
('HIR', 'Solomon Islands', 'HIR', 'Honiara Henderson Int\'l', 'SB', ''),
('HIS', 'Australia', 'HIS', 'Hayman Island', 'LN', ''),
('HKD', 'Japan', 'HKD', 'Hakodate', 'JP', ''),
('HKG', 'HKG', 'HKG', '', 'HK', ''),
('HKT', 'HKT', 'HKT', '', 'TH', ''),
('HKY', 'NC', 'HKY', 'Hickory', 'LN', ''),
('HLA', 'South Africa', 'HLA', 'Lanseria', 'ZA', ''),
('HLN', 'MT', 'HLN', 'Helena', 'US', ''),
('HLP', 'Jakarta', 'HLP', 'Halim Perdanakusuma', 'ID', 'Indonesia'),
('HLT', 'Australia', 'HLT', 'Hamilton', 'LN', ''),
('HMO', 'Mexico', 'HMO', 'Hermosillo - Gen. Pesqueira Garcia', 'MX', ''),
('HNA', 'Hanamaki', 'HNA', 'Morioka', 'JP', ''),
('HND', 'HND', 'HND', '', 'JP', ''),
('HNH', 'AK', 'HNH', 'Hoonah', 'US', ''),
('HNL', 'HI', 'HNL', 'Honolulu', 'US', ''),
('HNS', 'AK', 'HNS', 'Haines', 'US', ''),
('HOG', 'Cuba', 'HOG', 'Holguin', 'CU', ''),
('HOM', 'AK', 'HOM', 'Homer', 'LN', ''),
('HON', 'SD', 'HON', 'Huron', 'US', ''),
('HOQ', 'Germany', 'HOQ', 'Hof', 'DE', ''),
('HOR', 'Portugal', 'HOR', 'Horta', 'PT', ''),
('HOU', 'Hobby', 'HOU', 'Houston', 'US', ''),
('HPN', 'NY', 'HPN', 'White Plains', 'US', ''),
('HRB', 'Heilongjiang', 'HRB', 'Harbin (Haerbin)', 'CN', ''),
('HRE', 'Zimbabwe', 'HRE', 'Harare', 'ZW', ''),
('HRG', 'Egypt', 'HRG', 'Hurghada Int\'l', 'EG', 'Egypt'),
('HRL', 'TX', 'HRL', 'Harlington/South Padre Island', 'US', ''),
('HSV', 'AL', 'HSV', 'Huntsville', 'US', ''),
('HTA', 'Russia', 'HTA', 'Chita (Tschita)', 'RU', ''),
('HTI', 'Australia', 'HTI', 'Hamilton Island', 'AU', ''),
('HTS', 'OH', 'HTS', 'Huntington', 'US', ''),
('HUF', 'IN', 'HUF', 'Terre Haute', 'LN', ''),
('HUH', 'French Polynesia', 'HUH', 'Huahine', 'PF', ''),
('HUI', 'Viet Nam', 'HUI', 'Hue - Phu Bai', 'VN', ''),
('HUX', 'Mexico', 'HUX', 'Huatulco', 'MX', ''),
('HUY', 'United Kingdom', 'HUY', 'Humberside', 'GB', ''),
('HVB', 'Australia', 'HVB', 'Hervey Bay', 'AU', ''),
('HVN', 'CT', 'HVN', 'New Haven', 'US', ''),
('HVR', 'MT', 'HVR', 'Havre', 'LN', ''),
('HYA', 'MA', 'HYA', 'Hyannis', 'US', ''),
('HYD', 'HYD', 'HYD', '', 'IN', ''),
('HYG', 'AK', 'HYG', 'Hydaburg', 'LN', ''),
('IAD', 'USA', 'IAD', 'Washington DC - Dulles Int\'l', 'US', ''),
('IAG', 'USA', 'IAG', 'Niagara Falls Int\'l', 'LN', ''),
('IAH', 'IAH', 'IAH', '', 'US', ''),
('IBZ', 'Ibiza/Spain', 'IBZ', 'Ibiza', 'ES', ''),
('ICN', 'ICN', 'ICN', '', 'KR', ''),
('ICT', 'KS', 'ICT', 'Wichita', 'US', ''),
('IDA', 'ID', 'IDA', 'Idaho Falls', 'US', ''),
('IEV', 'Ukraine', 'IEV', 'Kiev - Zhulhany', 'UA', ''),
('IFL', 'Australia', 'IFL', 'Innisfail', 'LN', ''),
('IGR', 'Cataratas', 'IGR', 'Iguazu', 'AR', ''),
('IKA', 'IKA', 'IKA', '', 'IR', ''),
('IKT', 'Russia', 'IKT', 'Irkutsk', 'RU', ''),
('ILI', 'AK', 'ILI', 'Iliamna', 'LN', ''),
('ILM', 'NC', 'ILM', 'Wilmington', 'US', ''),
('ILP', 'New Caledonia', 'ILP', 'Ile des Pins', 'NC', ''),
('IND', 'IN', 'IND', 'Indianapolis', 'US', ''),
('INI', 'Yugoslavia', 'INI', 'Nis', 'RS', ''),
('INL', 'MN', 'INL', 'International Falls', 'US', ''),
('INN', 'Austria', 'INN', 'Innsbruck - Kranebitten', 'AT', ''),
('INV', 'United Kingdom', 'INV', 'Inverness', 'GB', ''),
('IOM', 'United Kingdom', 'IOM', 'Isle of Man', 'IM', ''),
('IPC', 'Chile', 'IPC', 'Easter Island', 'CL', ''),
('IPL', 'CA', 'IPL', 'Imperial', 'LN', ''),
('IPT', 'PA', 'IPT', 'Williamsport', 'US', ''),
('IQT', 'Peru', 'IQT', 'Iquitos', 'PE', ''),
('IRG', 'Australia', 'IRG', 'Lockhart River', 'AU', ''),
('ISA', 'Australia', 'ISA', 'Mt. Isa', 'AU', ''),
('ISB', 'Pakistan', 'ISB', 'Islamabad - Islamabad Int\'l', 'PK', ''),
('ISO', 'NC', 'ISO', 'Kingston', 'LN', ''),
('ISP', 'Islip', 'ISP', 'Long Island', 'US', ''),
('IST', 'IST', 'IST', '', 'TR', ''),
('ITH', 'NY', 'ITH', 'Ithaca/Cortland', 'US', ''),
('ITM', 'ITM', 'ITM', '', 'JP', ''),
('ITO', 'HI', 'ITO', 'Hilo', 'US', ''),
('IVC', 'New Zealand', 'IVC', 'Incercargill', 'NZ', ''),
('IVL', 'Finland', 'IVL', 'Ivalo', 'FI', ''),
('IXB', 'India', 'IXB', 'Bagdogra', 'IN', ''),
('IXC', 'India', 'IXC', 'Chandigarh', 'IN', ''),
('IXG', 'India', 'IXG', 'Belgaum', 'IN', ''),
('IXR', 'India', 'IXR', 'Ranchi', 'IN', ''),
('IXW', 'India', 'IXW', 'Jamshedpur - Sonari', 'LN', ''),
('IYK', 'CA', 'IYK', 'Inykern', 'LN', ''),
('JAC', 'WY', 'JAC', 'Jackson Hole', 'US', ''),
('JAI', 'India', 'JAI', 'Jaipur - Sanganeer', 'IN', ''),
('JAN', 'MS', 'JAN', 'Jackson', 'US', ''),
('JAX', 'FL', 'JAX', 'Jacksonville', 'US', ''),
('JBB', 'Jember', 'JBB', 'Notohadinegoro', 'ID', 'Indonesia'),
('JCB', 'Brazil', 'JCB', 'Joacaba', 'LN', ''),
('JED', 'JED', 'JED', '', 'SA', ''),
('JER', 'United Kingdom', 'JER', 'Jersey', 'JE', ''),
('JFK', 'JFK', 'JFK', '', 'US', ''),
('JHB', 'JHB', 'JHB', '', 'MY', ''),
('JHE', 'Sweden', 'JHE', 'Helsingborg', 'LN', ''),
('JHM', 'HI', 'JHM', 'Kapalua West', 'US', ''),
('JHQ', 'Australia', 'JHQ', 'Shute Harbour', 'LN', ''),
('JHW', 'NY', 'JHW', 'Jamestown', 'LN', ''),
('JIB', 'Djibouti', 'JIB', 'Djibouti', 'DJ', ''),
('JIW', 'Pakistan', 'JIW', 'Jiwani', 'PK', ''),
('JKG', 'Sweden', 'JKG', 'Joenkoeping', 'SE', ''),
('JKH', 'Greece', 'JKH', 'Chios', 'GR', ''),
('JLN', 'MO', 'JLN', 'Joplin', 'US', ''),
('JLR', 'India', 'JLR', 'Jalandhar', 'IN', ''),
('JMK', 'Greece', 'JMK', 'Mykonos', 'GR', ''),
('JMS', 'ND', 'JMS', 'Jamestown', 'US', ''),
('JNB', 'South Africa', 'JNB', 'Johannesburg - Johannesburg Int\'l', 'ZA', ''),
('JNU', 'AK - Juneau Int\'l', 'JNU', 'Juneau', 'US', ''),
('JOE', 'Finland', 'JOE', 'Joensuu', 'FI', ''),
('JOG', 'Yogyakarta', 'JOG', 'Adi Sutjipto', 'ID', 'Indonesia'),
('JPA', 'Brazil', 'JPA', 'Joao Pessoa - Castro Pinto', 'BR', ''),
('JRO', 'Tanzania', 'JRO', 'Kilimadjaro', 'TZ', ''),
('JSI', 'Greece', 'JSI', 'Skiathos', 'GR', ''),
('JST', 'PA', 'JST', 'Johnstown', 'US', ''),
('JTR', 'Greece', 'JTR', 'Thira', 'GR', ''),
('JXN', 'MI', 'JXN', 'Jackson', 'LN', ''),
('JYV', 'Finland', 'JYV', 'Jyvaeskylae', 'FI', ''),
('KAJ', 'Finland', 'KAJ', 'Kajaani', 'FI', ''),
('KAN', 'Nigeria', 'KAN', 'Kano', 'NG', ''),
('KAO', 'Finland', 'KAO', 'Kuusamo', 'FI', ''),
('KAZ', 'Tobelo', 'KAZ', 'Kuabang', 'ID', 'Indonesia'),
('KBL', 'Afghanistan', 'KBL', 'Kabul - Khwaja Rawash', 'AF', ''),
('KBP', 'Ukraine', 'KBP', 'Kiev - Borispol', 'UA', ''),
('KBR', 'KBR', 'KBR', '', 'MY', ''),
('KBU', 'Kotabaru', 'KBU', 'Gusti Syamsir Alam', 'ID', 'Indonesia'),
('KBY', 'Australia', 'KBY', 'Streaky Bay', 'LN', ''),
('KCC', 'AK', 'KCC', 'Coffmann Cove', 'LN', ''),
('KCH', 'KCH', 'KCH', '', 'MY', ''),
('KCZ', 'Japan', 'KCZ', 'Kochi', 'JP', ''),
('KDD', 'Pakistan', 'KDD', 'Khuzdar', 'PK', ''),
('KDI', 'Kendari', 'KDI', 'Wolter Monginsidi', 'ID', 'Indonesia'),
('KDU', 'Pakistan', 'KDU', 'Skardu', 'PK', ''),
('KEF', 'Iceland', 'KEF', 'Reykjavik - Keflavik International', 'IS', ''),
('KEL', 'Germany', 'KEL', 'Kiel - Holtenau', 'DE', ''),
('KEM', 'Finland', 'KEM', 'Kemi/Tornio', 'FI', ''),
('KGC', 'Australia', 'KGC', 'Kingscote', 'AU', ''),
('KGI', 'Australia', 'KGI', 'Kalgoorlie', 'AU', ''),
('KGL', 'Rwanda', 'KGL', 'Kigali - Gregoire Kayibanda', 'RW', ''),
('KGS', 'Greece', 'KGS', 'Kos', 'GR', ''),
('KHH', 'Taiwan', 'KHH', 'Kaohsiung Int\'l', 'TW', ''),
('KHI', 'Pakistan', 'KHI', 'Karachi - Quaid-E-Azam Int\'l', 'PK', ''),
('KHN', 'KHN', 'KHN', '', 'CN', ''),
('KHV', 'Russia', 'KHV', 'Chabarovsk (Khabarovsk)', 'RU', ''),
('KID', 'Sweden', 'KID', 'Kristianstad', 'SE', ''),
('KIJ', 'Japan', 'KIJ', 'Niigata', 'JP', ''),
('KIK', 'Iraq', 'KIK', 'Kirkuk', 'LN', ''),
('KIM', 'South Africa', 'KIM', 'Kimberley', 'ZA', ''),
('KIN', 'Jamaica', 'KIN', 'Kingston - Norman Manley', 'JM', ''),
('KIR', 'Ireland', 'KIR', 'Kerry County', 'IE', ''),
('KIW', 'Zambia', 'KIW', 'Kitwe', 'LN', ''),
('KIX', 'KIX', 'KIX', '', 'JP', ''),
('KJT', 'Majalengka', 'KJT', 'Kertajati Intl', 'ID', 'Indonesia'),
('KKN', 'Norway', 'KKN', 'Kirkenes', 'NO', ''),
('KLO', 'KLO', 'KLO', '', 'PH', ''),
('KLR', 'Sweden', 'KLR', 'Kalmar', 'SE', ''),
('KLU', 'Austria', 'KLU', 'Klagenfurt', 'AT', ''),
('KLW', 'AK', 'KLW', 'Klawock', 'LN', ''),
('KLX', 'Greece', 'KLX', 'Kalamata', 'GR', ''),
('KLZ', 'South Africa', 'KLZ', 'Kleinsee', 'LN', ''),
('KMG', 'KMG', 'KMG', '', 'CN', ''),
('KMI', 'Japan', 'KMI', 'Miyazaki', 'JP', ''),
('KMJ', 'Japan', 'KMJ', 'Kumamoto', 'JP', ''),
('KMP', 'Namibia', 'KMP', 'Keetmanshoop', 'LN', ''),
('KMQ', 'Japan', 'KMQ', 'Komatsu', 'JP', ''),
('KNG', 'Kaimana', 'KNG', 'Kaimana', 'ID', 'Indonesia'),
('KNO', 'Medan', 'KNO', 'Kualanamu Intl', 'ID', 'Indonesia'),
('KNS', 'King Island', 'KNS', 'King Island', 'AU', ''),
('KNX', 'Australia', 'KNX', 'Kununurra', 'AU', ''),
('KOA', 'HI', 'KOA', 'Kona', 'US', ''),
('KOE', 'Kupang', 'KOE', 'El Tari', 'ID', 'Indonesia'),
('KOI', 'United Kingdom', 'KOI', 'Orkney', 'GB', ''),
('KOJ', 'Japan', 'KOJ', 'Kagoshima', 'JP', ''),
('KOK', 'Finland', 'KOK', 'Kokkola/Pietarsaari', 'FI', ''),
('KRB', 'Australia', 'KRB', 'Karumba', 'AU', ''),
('KRK', 'Poland', 'KRK', 'Krakau', 'PL', ''),
('KRN', 'Sweden', 'KRN', 'Kiruna', 'SE', ''),
('KRP', 'Denmark', 'KRP', 'Karup', 'DK', ''),
('KRS', 'Norway', 'KRS', 'Kristiansand', 'NO', ''),
('KRT', 'Sudan', 'KRT', 'Khartoum', 'SD', ''),
('KSD', 'Sweden', 'KSD', 'Karlstad', 'SE', ''),
('KSL', 'Sudan', 'KSL', 'Kassala', 'SD', ''),
('KSU', 'Norway', 'KSU', 'Kristiansund', 'NO', ''),
('KTA', 'Australia', 'KTA', 'Karratha', 'AU', ''),
('KTB', 'AK', 'KTB', 'Thorne Bay', 'LN', ''),
('KTG', 'Ketapang', 'KTG', 'Rahadi Usman', 'ID', 'Indonesia'),
('KTM', 'Nepal', 'KTM', 'Kathmandu - Tribhuvan', 'NP', ''),
('KTN', 'AK', 'KTN', 'Ketchikan', 'US', ''),
('KTR', 'Australia', 'KTR', 'Katherine', 'LN', ''),
('KTT', 'Finland', 'KTT', 'Kittilä', 'FI', ''),
('KUA', 'Malaysia', 'KUA', 'Kuantan', 'MY', ''),
('KUH', 'Japan', 'KUH', 'Kushiro', 'JP', ''),
('KUL', 'Kuala Lumpur', 'KUL', 'Kuala Lumpur Intl', 'MY', ''),
('KUO', 'Finland', 'KUO', 'Kuopio', 'FI', ''),
('KVA', 'Greece', 'KVA', 'Kavalla', 'GR', ''),
('KWB', 'Karimun Jawa', 'KWB', 'Dewadaru', 'ID', 'Indonesia'),
('KWI', 'KWI', 'KWI', '', 'KW', ''),
('KWL', 'KWL', 'KWL', '', 'CN', ''),
('KWM', 'Australia', 'KWM', 'Kowanyama', 'AU', ''),
('KZN', 'Russia', 'KZN', 'Kazan (Ka San)', 'RU', ''),
('LAD', 'Angola', 'LAD', 'Luanda - 4 de Fevereiro', 'AO', ''),
('LAE', 'Papua New Guinea', 'LAE', 'Lae', 'PG', ''),
('LAF', 'IN', 'LAF', 'Lafayette', 'LN', ''),
('LAH', 'Labuha', 'LAH', 'Oesman Sadik', 'ID', 'Indonesia'),
('LAI', 'France', 'LAI', 'Lannion', 'FR', ''),
('LAN', 'MI', 'LAN', 'Lansing', 'US', ''),
('LAP', 'Mexico', 'LAP', 'La Paz - Leon', 'MX', ''),
('LAR', 'WY', 'LAR', 'Laramie', 'US', ''),
('LAS', 'LAS', 'LAS', '', 'US', ''),
('LAW', 'OK', 'LAW', 'Lawton', 'LN', ''),
('LAX', 'LAX', 'LAX', '', 'US', ''),
('LBA', 'United Kingdom', 'LBA', 'Leeds/Bradford', 'GB', ''),
('LBB', 'TX', 'LBB', 'Lubbock', 'US', ''),
('LBE', 'PA', 'LBE', 'Latrobe', 'US', ''),
('LBG', 'France', 'LBG', 'Paris - Le Bourget', 'LN', ''),
('LBI', 'France', 'LBI', 'Albi', 'LN', ''),
('LBJ', 'Labuhan Bajo', 'LBJ', 'Mutiara II', 'ID', 'Indonesia'),
('LBQ', 'Gabon', 'LBQ', 'Lambarene', 'LN', ''),
('LBU', 'Malaysia', 'LBU', 'Labuan', 'MY', ''),
('LBV', 'Gabon', 'LBV', 'Libreville', 'GA', ''),
('LBW', 'LBW', 'LBW', '', 'ID', 'Indonesia'),
('LCA', 'Cyprus', 'LCA', 'Larnaca', 'CY', ''),
('LCG', 'Spain', 'LCG', 'La Coruna', 'ES', ''),
('LCH', 'La', 'LCH', 'Lake Charles', 'US', ''),
('LCY', 'United Kingdom', 'LCY', 'London - City Airport', 'GB', ''),
('LDE', 'France', 'LDE', 'Lourdes/Tarbes', 'FR', ''),
('LDK', 'Sweden', 'LDK', 'Lidkoeping', 'LN', ''),
('LDY', 'United Kingdom', 'LDY', 'Derry (Londonderry)', 'GB', ''),
('LEA', 'Australia', 'LEA', 'Learmouth (Exmouth)', 'AU', ''),
('LEB', 'NH', 'LEB', 'Lebanon', 'US', ''),
('LED', 'LED', 'LED', '', 'RU', ''),
('LEI', 'Spain', 'LEI', 'Almeria', 'ES', ''),
('LEJ', 'Germany', 'LEJ', 'Leipzig', 'DE', ''),
('LEK', 'Guinea', 'LEK', 'Labe', 'LN', ''),
('LER', 'Australia', 'LER', 'Leinster', 'AU', ''),
('LEX', 'KY', 'LEX', 'Lexington', 'US', ''),
('LEY', 'Netherlands', 'LEY', 'Lelystad', 'LN', ''),
('LFT', 'La', 'LFT', 'Lafayette', 'US', ''),
('LFW', 'Togo', 'LFW', 'Lome', 'TG', ''),
('LGA', 'NY', 'LGA', 'New York - La Guardia', 'US', ''),
('LGB', 'CA', 'LGB', 'Long Beach', 'US', ''),
('LGG', 'Belgium', 'LGG', 'Liege', 'BE', ''),
('LGK', 'LGK', 'LGK', '', 'MY', ''),
('LGW', 'LGW', 'LGW', '', 'UK', ''),
('LHE', 'Lahore', 'LHE', 'Allama Iqbal International', 'PK', ''),
('LHR', 'LHR', 'LHR', '', 'UK', ''),
('LIF', 'Loyaute', 'LIF', 'Lifou', 'NC', ''),
('LIG', 'France', 'LIG', 'Limoges', 'FR', ''),
('LIH', 'HI', 'LIH', 'Lihue', 'US', ''),
('LIL', 'France', 'LIL', 'Lille', 'FR', ''),
('LIM', 'Peru', 'LIM', 'Lima - J Chavez Int\'l', 'PE', ''),
('LIN', 'Italy', 'LIN', 'Milan - Linate', 'IT', ''),
('LIQ', 'Congo', 'LIQ', 'Lisala', 'LN', ''),
('LIS', 'Portugal', 'LIS', 'Lisbon - Lisboa', 'PT', ''),
('LIT', 'AR', 'LIT', 'Little Rock', 'US', ''),
('LJU', 'Slovenia', 'LJU', 'Ljubljana - Brnik', 'SI', ''),
('LKA', 'Larantuka', 'LKA', 'Gewayantana', 'ID', 'Indonesia'),
('LLG', 'LLG', 'LKI', '', 'ID', 'Indonesia'),
('LKL', 'Norway', 'LKL', 'Lakselv', 'NO', ''),
('LKO', 'India', 'LKO', 'Lucknow', 'IN', ''),
('LLA', 'Sweden', 'LLA', 'Lulea', 'SE', ''),
('LLG', 'Lubuklinggau', 'LLG', 'Silampari', 'ID', 'Indonesia'),
('LLO', 'Palopo', 'LLO', 'Lagaligo Airport', 'ID', 'Indonesia'),
('LLW', 'Malawi', 'LLW', 'Lilongwe - Lilongwe International', 'MW', ''),
('LMM', 'Mexico', 'LMM', 'Los Mochis', 'MX', ''),
('LMP', 'Italy', 'LMP', 'Lampedusa', 'IT', ''),
('LMT', 'OR', 'LMT', 'Klamath Fall', 'US', ''),
('LMU', 'Anambas', 'LMU', 'Letung', 'ID', 'Indonesia'),
('LNK', 'NE', 'LNK', 'Lincoln', 'US', ''),
('LNO', 'Australia', 'LNO', 'Leonora', 'AU', ''),
('LNS', 'PA', 'LNS', 'Lancaster', 'US', ''),
('LNY', 'HI', 'LNY', 'Lanai City', 'US', ''),
('LNZ', 'Austria', 'LNZ', 'Linz - Hoersching', 'AT', ''),
('LON', 'LON', 'LON', '', '', ''),
('LOP', 'Lombok', 'LOP', 'Lombok Intl', 'ID', 'Indonesia'),
('LOS', 'Nigeria', 'LOS', 'Lagos - Murtala Muhammed', 'NG', ''),
('LPA', 'Spain', 'LPA', 'Las Palmas', 'ES', ''),
('LPB', 'Bolivia', 'LPB', 'La Paz - El Alto', 'BO', ''),
('LPL', 'United Kingdom', 'LPL', 'Liverpool', 'GB', ''),
('LPP', 'Finland', 'LPP', 'Lappeenranta', 'LN', ''),
('LRD', 'TX', 'LRD', 'Laredo', 'US', ''),
('LRE', 'Australia', 'LRE', 'Longreach', 'AU', ''),
('LRH', 'France', 'LRH', 'La Rochelle', 'FR', ''),
('LRM', 'Dominican Republic', 'LRM', 'Casa de Campo/La Romana', 'DO', ''),
('LRT', 'France', 'LRT', 'Lorient', 'FR', ''),
('LSE', 'WI', 'LSE', 'La Crosse', 'US', ''),
('LSI', 'United Kingdom', 'LSI', 'Sumburgh (Shetland)', 'GB', ''),
('LST', 'Australia', 'LST', 'Launceston', 'AU', ''),
('LSW', 'Lhok Seumawe', 'LSW', 'Malikus Saleh ', 'ID', 'Indonesia'),
('LSY', 'Australia', 'LSY', 'Lismore', 'AU', ''),
('LSZ', 'Croatia (Hrvatska)', 'LSZ', '(Mali) Losinj - Losinj Arpt', 'LN', ''),
('LTN', 'United Kingdom', 'LTN', 'London - Luton', 'GB', ''),
('LTO', 'Mexico', 'LTO', 'Loreto', 'MX', ''),
('LUD', 'Namibia', 'LUD', 'Luederitz', 'NA', ''),
('LUG', 'Switzerland', 'LUG', 'Lugano', 'CH', ''),
('LUN', 'Zambia', 'LUN', 'Lusaka', 'ZM', ''),
('LUV', 'Langgur Kei', 'LUV', 'Damatubun Airport', 'ID', 'Indonesia'),
('LUW', 'Luwuk', 'LUW', 'Bubung', 'ID', 'Indonesia'),
('LUX', 'Luxembourg', 'LUX', 'Luxembourg', 'LU', ''),
('LVO', 'Australia', 'LVO', 'Laverton', 'AU', ''),
('LWB', 'WV', 'LWB', 'Greenbrier/Lewisburg', 'LN', ''),
('LWE', 'LWE', 'LWE', '', 'ID', 'Indonesia'),
('LWO', 'Lemberg)', 'LWO', 'Lvov (Lwow', 'UA', ''),
('LWS', 'ID', 'LWS', 'Lewiston', 'US', ''),
('LWT', 'MT', 'LWT', 'Lewistown', 'US', ''),
('LXR', 'Egypt', 'LXR', 'Luxor', 'EG', 'Egypt'),
('LYH', 'VA', 'LYH', 'Lynchburg', 'US', ''),
('LYP', 'Pakistan', 'LYP', 'Faisalabad', 'PK', ''),
('LYR', 'Svalbard/Norway', 'LYR', 'Longyearbyen - Svalbard', 'NO', ''),
('LYS', 'France', 'LYS', 'Lyon', 'FR', ''),
('LZC', 'Mexico', 'LZC', 'Lazaro Cardenas', 'MX', ''),
('LZR', 'Australia', 'LZR', 'Lizard Island', 'LN', ''),
('MAA', 'MAA', 'MAA', '', 'IN', ''),
('MAD', 'MAD', 'MAD', '', 'ES', ''),
('MAF', 'TX', 'MAF', 'Midland/Odessa', 'US', ''),
('MAH', 'Spain', 'MAH', 'Mahon', 'ES', ''),
('MAN', 'United Kingdom', 'MAN', 'Manchester', 'GB', ''),
('MAO', 'Brazil', 'MAO', 'Manaus', 'BR', ''),
('MAR', 'Venezuela', 'MAR', 'Maracaibo - La Chinita', 'VE', ''),
('MAU', 'French Polynesia', 'MAU', 'Maupiti', 'PF', ''),
('MAZ', 'Puerto Rico', 'MAZ', 'Mayaguez', 'PR', ''),
('MBA', 'Kenya', 'MBA', 'Mombasa - Moi International', 'KE', ''),
('MBH', 'Australia', 'MBH', 'Maryborough', 'AU', ''),
('MBJ', 'Jamaica', 'MBJ', 'Montenego Bay', 'JM', ''),
('MBS', 'MI', 'MBS', 'Saginaw/Bay City/Midland', 'US', ''),
('MBX', 'Slovenia', 'MBX', 'Maribor', 'SI', ''),
('MCE', 'CA', 'MCE', 'Merced', 'LN', ''),
('MCI', 'MO - Int\'l', 'MCI', 'Kansas City', 'US', ''),
('MCL', 'AK', 'MCL', 'Mt. McKinley', 'LN', ''),
('MCN', 'GA', 'MCN', 'Macon', 'US', ''),
('MCP', 'Brazil', 'MCP', 'Macapa', 'BR', ''),
('MCT', 'Oman', 'MCT', 'Muscat - Seeb', 'OM', ''),
('MCW', 'IA', 'MCW', 'Mason City', 'LN', ''),
('MCY', 'Australia', 'MCY', 'Sunshine Coast', 'AU', ''),
('MCZ', 'Brazil', 'MCZ', 'Maceio', 'BR', ''),
('MDC', 'Manado', 'MDC', 'Sam Ratulangi', 'ID', 'Indonesia'),
('MDE', 'Colombia', 'MDE', 'Medellin', 'CO', ''),
('MDQ', 'Argentina', 'MDQ', 'Mar del Plata', 'AR', ''),
('MDT', 'PA - Harrisburg Int\'l', 'MDT', 'Harrisburg', 'US', ''),
('MDW', 'Midway', 'MDW', 'Chicago', 'US', ''),
('MDZ', 'Argentina', 'MDZ', 'Mendoza', 'AR', ''),
('MED', 'Mohammad Bin Abdulaziz', 'MED', 'Madinah', 'SA', ''),
('MEE', 'New Caledonia', 'MEE', 'Mare', 'NC', ''),
('MEI', 'MS', 'MEI', 'Meridian', 'US', ''),
('MEL', 'MEL', 'MEL', '', 'AU', ''),
('MEM', 'TN', 'MEM', 'Memphis', 'US', ''),
('MEQ', 'Meulaboh', 'MEQ', 'Cut Nyak Dhien', 'ID', 'Indonesia'),
('MES', 'Medan', 'MES', 'Soewondo', 'ID', 'Indonesia'),
('MEX', 'MEX', 'MEX', '', 'MX', ''),
('MEZ', 'South Africa', 'MEZ', 'Messina', 'LN', ''),
('MFE', 'TX', 'MFE', 'McAllen', 'US', ''),
('MFG', 'Pakistan', 'MFG', 'Muzaffarabad', 'PK', ''),
('MFM', 'Macau', 'MFM', 'Macau', 'MO', ''),
('MFN', 'New Zealand', 'MFN', 'Milford Sound', 'LN', ''),
('MFQ', 'Niger', 'MFQ', 'Maradi', 'LN', ''),
('MFR', 'OR', 'MFR', 'Medford', 'US', ''),
('MFU', 'Zambia', 'MFU', 'Mfuwe', 'ZM', ''),
('MGA', 'Nicaragua', 'MGA', 'Managua - Augusto C Sandino', 'NI', ''),
('MGB', 'Australia', 'MGB', 'Mount Gambier', 'AU', ''),
('MGH', 'South Africa', 'MGH', 'Margate', 'ZA', ''),
('MGM', 'AL', 'MGM', 'Montgomery', 'US', ''),
('MGQ', 'Somalia', 'MGQ', 'Mogadischu', 'SO', ''),
('MGW', 'WV', 'MGW', 'Morgantown', 'US', ''),
('MHH', 'Bahamas', 'MHH', 'Marsh Harbour', 'BS', ''),
('MHQ', 'Finland', 'MHQ', 'Mariehamn (Maarianhamina)', 'FI', ''),
('MHT', 'NH', 'MHT', 'Manchester', 'US', ''),
('MIA', 'MIA', 'MIA', '', 'US', ''),
('MID', 'Mexico', 'MID', 'Merida', 'MX', ''),
('MIK', 'Finland', 'MIK', 'Mikkeli', 'LN', ''),
('MIL', 'MIL', 'MIL', '', '', ''),
('MIM', 'Australia', 'MIM', 'Merimbula', 'AU', ''),
('MIR', 'Tunisia', 'MIR', 'Monastir', 'TN', ''),
('MJC', 'Ivory Coast', 'MJC', 'Man', 'LN', ''),
('MJD', 'Pakistan', 'MJD', 'Moenjodaro', 'PK', ''),
('MJL', 'Gabon', 'MJL', 'Mouila', 'GA', ''),
('MJN', 'Madagascar', 'MJN', 'Majunga', 'MG', ''),
('MJT', 'Greece', 'MJT', 'Mytilene (Lesbos)', 'GR', ''),
('MJU', 'Mamuju', 'MJU', 'Tampa Padang', 'ID', 'Indonesia'),
('MJV', 'Spain', 'MJV', 'Murcia', 'ES', ''),
('MKE', 'WI', 'MKE', 'Milwaukee', 'US', ''),
('MKF', 'Miangas', 'MKF', 'Miangas Airport', 'ID', 'Indonesia'),
('MKG', 'MI', 'MKG', 'Muskegon', 'US', ''),
('MKK', 'HI', 'MKK', 'Kaunakakai', 'US', ''),
('MKL', 'TN', 'MKL', 'Jackson', 'US', ''),
('MKQ', 'Merauke', 'MKQ', 'Mopah', 'ID', 'Indonesia'),
('MKR', 'Australia', 'MKR', 'Meekatharra', 'AU', ''),
('MKW', 'Manokwari', 'MKW', 'Rendani', 'ID', 'Indonesia'),
('MKY', 'Australia', 'MKY', 'Mackay', 'AU', ''),
('MKZ', 'MKZ', 'MKZ', '', 'MY', ''),
('MLA', 'Malta', 'MLA', 'Luga', 'MT', ''),
('MLB', 'FL', 'MLB', 'Melbourne', 'US', ''),
('MLE', 'Maledives', 'MLE', 'Male - International', 'MV', ''),
('MLG', 'Malang', 'MLG', 'Abdul Rachman Saleh', 'ID', 'Indonesia'),
('MLH', 'France', 'MLH', 'Mulhouse', 'LN', ''),
('MLI', 'IL', 'MLI', 'Moline/Quad Cities', 'US', ''),
('MLK', 'Melalan', 'MLK', 'Melak', 'ID', 'Indonesia'),
('MLM', 'Mexico', 'MLM', 'Morelia', 'MX', ''),
('MLN', 'Malinau', 'MLN', 'Long Ampung', 'ID', 'Indonesia'),
('MLS', 'MT', 'MLS', 'Miles City', 'US', ''),
('MLU', 'La', 'MLU', 'Monroe', 'US', ''),
('MLW', 'Liberia', 'MLW', 'Monrovia', 'LR', ''),
('MME', 'Durham Tees Valley', 'MME', 'Teesside', 'GB', ''),
('MMG', 'Australia', 'MMG', 'Mount Magnet', 'AU', ''),
('MMJ', 'Nagano', 'MMJ', 'Matsumoto', 'JP', ''),
('MMK', 'Russia', 'MMK', 'Murmansk', 'RU', ''),
('MMX', 'Sweden', 'MMX', 'Malmo (Malmoe) - Sturup', 'SE', ''),
('MMY', 'Japan', 'MMY', 'Miyako Jima (Ryuku Islands) - Hirara', 'JP', ''),
('MNA', 'Melanguane', 'MNA', 'Melanguane', 'ID', 'Indonesia'),
('MNL', 'MNL', 'MNL', '', 'PH', ''),
('MOB', 'AL - Pascagoula', 'MOB', 'Mobile', 'US', ''),
('MOD', 'CA', 'MOD', 'Modesto', 'US', ''),
('MOF', 'Maumere', 'MOF', 'Wai Oti', 'ID', 'Indonesia'),
('MOR', 'Sulteng', 'MOH', 'Morowali Airport', 'ID', 'Indonesia'),
('MOT', 'ND', 'MOT', 'Minot', 'US', ''),
('MOV', 'Australia', 'MOV', 'Moranbah', 'AU', ''),
('MOW', 'MOW', 'MOW', '', '', ''),
('MOZ', 'French Polynesia', 'MOZ', 'Moorea', 'PF', ''),
('MPA', 'Namibia', 'MPA', 'Katima Mulilo/Mpacha', 'LN', ''),
('MPL', 'France', 'MPL', 'Montpellier - Frejorgues', 'FR', ''),
('MPM', 'Mozambique', 'MPM', 'Maputo - Maputo International', 'MZ', ''),
('MQL', 'Australia', 'MQL', 'Mildura', 'AU', ''),
('MQP', '', 'MQP', 'Nelspruit - Kruger Mpumalanga Int\'l Airport', 'ZA', ''),
('MQQ', 'Chad', 'MQQ', 'Moundou', 'TD', ''),
('MQT', 'MI', 'MQT', 'Marquette', 'LN', ''),
('MRS', 'France', 'MRS', 'Marseille', 'FR', ''),
('MRU', 'Mauritius', 'MRU', 'Mauritius - S.Seewoosagur Ram Int\'l', 'MU', ''),
('MRV', 'Russia', 'MRV', 'Mineralnye Vody', 'RU', ''),
('MRY', 'CA', 'MRY', 'Monterey', 'US', ''),
('MRZ', 'Australia', 'MRZ', 'Moree', 'AU', ''),
('MSL', 'AL', 'MSL', 'Muscle Shoals', 'US', '');
INSERT INTO `airports` (`city_code`, `city_name`, `airport_code`, `airport_name`, `country_code`, `country_name`) VALUES
('MSN', 'WI', 'MSN', 'Madison', 'US', ''),
('MSO', 'MT', 'MSO', 'Missula', 'US', ''),
('MSP', 'MN', 'MSP', 'Minneapolis - St. Paul Int\'l Airport', 'US', ''),
('MSQ', 'International', 'MSQ', 'Minsk', 'BY', ''),
('MSR', 'Germany', 'MSR', 'Muenster/Osnabrueck', 'TR', ''),
('MST', 'Netherlands', 'MST', 'Maastricht/Aachen', 'NL', ''),
('MSU', 'Lesotho', 'MSU', 'Maseru - Moshoeshoe Int\'l', 'LS', ''),
('MSY', 'La', 'MSY', 'New Orleans', 'US', ''),
('MTH', 'FL', 'MTH', 'Marathon', 'LN', ''),
('MTJ', 'CO', 'MTJ', 'Montrose/Tellruide', 'LN', ''),
('MTL', 'Australia', 'MTL', 'Maitland', 'LN', ''),
('MTM', 'AK', 'MTM', 'Metlakatla', 'LN', ''),
('MTS', 'Swaziland', 'MTS', 'Manzini - Matsapha Int\'l', 'SZ', ''),
('MTT', 'Mexico', 'MTT', 'Minatitlan', 'MX', ''),
('MTY', 'Mexico', 'MTY', 'Monterrey', 'MX', ''),
('MUB', 'Botswana', 'MUB', 'Maun', 'BW', ''),
('MUC', 'MUC', 'MUC', '', 'DE', ''),
('MUE', 'HI', 'MUE', 'Kamuela', 'US', ''),
('MUH', 'Egypt', 'MUH', 'Marsa Matrah (Marsa Matruh)', 'LN', ''),
('MUX', 'Pakistan', 'MUX', 'Multan', 'PK', ''),
('MVB', 'Gabon', 'MVB', 'Mvengue', 'GA', ''),
('MVD', 'Uruguay', 'MVD', 'Montevideo - Carrasco', 'UY', ''),
('MVR', 'Cameroon', 'MVR', 'Maroua', 'CM', ''),
('MVY', 'MA', 'MVY', 'Martha\'s Vineyard', 'US', ''),
('MVZ', 'Zimbabwe', 'MVZ', 'Masvingo', 'LN', ''),
('MWH', 'WA', 'MWH', 'Moses Lake', 'LN', ''),
('MXL', 'Mexico', 'MXL', 'Mexicali', 'MX', ''),
('MXP', 'Italy', 'MXP', 'Milan - Malpensa', 'IT', ''),
('MYD', 'Kenya', 'MYD', 'Malindi', 'KE', ''),
('MYJ', 'Japan', 'MYJ', 'Matsuyama', 'JP', ''),
('MYR', 'SC', 'MYR', 'Myrtle Beach', 'US', ''),
('MYY', 'MYY', 'MYY', '', 'MY', ''),
('MZG', 'Taiwan', 'MZG', 'Makung', 'TW', ''),
('MZM', 'France', 'MZM', 'Metz', 'LN', ''),
('MZT', 'Mexico', 'MZT', 'Mazatlan', 'MX', ''),
('NAA', 'Australia', 'NAA', 'Narrabri', 'AU', ''),
('NAG', 'India', 'NAG', 'Nagpur', 'IN', ''),
('NAH', 'Tahuna', 'NAH', 'Naha', 'ID', 'Indonesia'),
('NAM', 'Buru Island', 'NAM', 'Namlea', 'ID', 'Indonesia'),
('NAN', 'Fiji', 'NAN', 'Nadi', 'FJ', ''),
('NAO', 'NAO', 'NAO', '', 'CN', ''),
('NAP', 'Italy', 'NAP', 'Naples', 'IT', ''),
('NAS', 'Bahamas', 'NAS', 'Nassau', 'BS', ''),
('NAT', 'Brazil', 'NAT', 'Natal', 'BR', ''),
('NAY', 'China', 'NAY', 'Beijing - Nanyuan Airport', 'CN', ''),
('NBO', 'Kenya', 'NBO', 'Nairobi', 'KE', ''),
('NBX', 'Nabire', 'NBX', 'Nabire', 'ID', 'Indonesia'),
('NCE', 'France', 'NCE', 'Nice - Cote D\'Azur', 'FR', ''),
('NCL', 'United Kingdom', 'NCL', 'Newcastle', 'GB', ''),
('NCS', 'South Africa', 'NCS', 'Newcastle', 'LN', ''),
('NCY', 'France', 'NCY', 'Annecy', 'FR', ''),
('NDB', 'Mauritania', 'NDB', 'Nouadhibou', 'MR', ''),
('NDJ', 'Chad', 'NDJ', 'N\'Djamena', 'TD', ''),
('NDU', 'Namibia', 'NDU', 'Rundu', 'NA', ''),
('NEV', 'Nevis', 'NEV', 'Nevis', 'KN', ''),
('NGE', 'Cameroon', 'NGE', 'N\'Gaoundere', 'CM', ''),
('NGO', 'NGO', 'NGO', '', 'JP', ''),
('NGS', 'Japan', 'NGS', 'Nagasaki', 'JP', ''),
('NIC', 'Cyprus', 'NIC', 'Nicosia', 'LN', ''),
('NIM', 'Niger', 'NIM', 'Niamey', 'NE', ''),
('NKC', 'Mauritania', 'NKC', 'Nouakchott', 'MR', ''),
('NKG', 'NKG', 'NKG', '', 'CN', ''),
('NLA', 'Zambia', 'NLA', 'N\'Dola', 'ZM', ''),
('NLD', 'Mexico', 'NLD', 'Nuevo Laredo', 'MX', ''),
('NLK', 'Australia', 'NLK', 'Norfolk Island', 'NF', ''),
('NLP', 'South Africa', 'NLP', 'Nelspruit', 'LN', ''),
('NLV', 'Ukraine', 'NLV', 'Nikolaev', 'LN', ''),
('NNG', 'NNG', 'NNG', '', 'CN', ''),
('NNX', 'Nunukan', 'NNX', 'Nunukan ', 'ID', 'Indonesia'),
('NOC', 'Ireland', 'NOC', 'Knock', 'IE', ''),
('NOU', 'New Caledonia', 'NOU', 'Noumea', 'NC', ''),
('NRA', 'Australia', 'NRA', 'Narrandera', 'AU', ''),
('NRK', 'Sweden', 'NRK', 'Norrkoeping', 'SE', ''),
('NRT', 'NRT', 'NRT', '', 'JP', ''),
('NSN', 'New Zealand', 'NSN', 'Nelson', 'NZ', ''),
('NSO', 'Australia', 'NSO', 'Scone', 'LN', ''),
('NTE', 'France', 'NTE', 'Nantes', 'FR', ''),
('NTL', 'Australia', 'NTL', 'Newcastle - Williamtown', 'AU', ''),
('NTR', 'Mexico', 'NTR', 'Monterrey - Aeropuerto Del Norte', 'LN', ''),
('NTX', 'Natuna Besar', 'NTX', 'Ranai ', 'ID', 'Indonesia'),
('NTY', 'South Africa', 'NTY', 'Pilanesberg/Sun City', 'LN', ''),
('NUE', 'Germany', 'NUE', 'Nürnberg (Nuremberg)', 'DE', ''),
('NYC', 'NY', 'NYC', 'New York', 'LN', ''),
('OAG', 'Australia', 'OAG', 'Orange', 'LN', ''),
('OAJ', 'NC', 'OAJ', 'Jacksonville', 'LN', ''),
('OAK', 'CA', 'OAK', 'Oakland', 'US', ''),
('OAX', 'Mexico', 'OAX', 'Oaxaca', 'MX', ''),
('ODB', 'Spain', 'ODB', 'Cordoba', 'LN', ''),
('ODE', 'Denmark', 'ODE', 'Odense', 'DK', ''),
('ODS', 'Ukraine', 'ODS', 'Odessa', 'UA', ''),
('OGG', 'HI', 'OGG', 'Kahului', 'US', ''),
('OHD', 'Macedonia', 'OHD', 'Ohrid', 'MK', ''),
('OIT', 'Japan', 'OIT', 'Oita', 'JP', ''),
('OKA', 'OKA', 'OKA', '', 'JP', ''),
('OKC', 'OK - Will Rogers World', 'OKC', 'Oklahoma City', 'US', ''),
('OKD', 'Hokkaido', 'OKD', 'Sapporo - Okadama', 'JP', ''),
('OKJ', 'Japan', 'OKJ', 'Okayama', 'JP', ''),
('OKU', 'Namibia', 'OKU', 'Mokuti', 'LN', ''),
('OLB', 'Italy', 'OLB', 'Olbia', 'IT', ''),
('OLF', 'MT', 'OLF', 'Wolf Point', 'LN', ''),
('OLP', 'Australia', 'OLP', 'Olympic Dam', 'AU', ''),
('OMA', 'NE', 'OMA', 'Omaha', 'US', ''),
('OMD', 'Namibia', 'OMD', 'Oranjemund', 'NA', ''),
('OME', 'AK', 'OME', 'Nome', 'US', ''),
('OMO', 'Bosnia and Herzegovina', 'OMO', 'Mostar', 'BA', ''),
('OND', 'Namibia', 'OND', 'Ondangwa', 'NA', ''),
('ONT', 'CA', 'ONT', 'Ontario', 'US', ''),
('OOL', 'Australia', 'OOL', 'Gold Coast', 'AU', ''),
('OOM', 'Australia', 'OOM', 'Cooma', 'AU', ''),
('OPO', 'Portugal', 'OPO', 'Porto', 'PT', ''),
('ORB', 'Sweden', 'ORB', 'Oerebro', 'SE', ''),
('ORD', 'ORD', 'ORD', '', 'US', ''),
('ORF', 'VA', 'ORF', 'Norfolk/Virginia Beach', 'US', ''),
('ORH', 'MA', 'ORH', 'Worcester', 'LN', ''),
('ORK', 'Ireland', 'ORK', 'Cork', 'IE', ''),
('ORL', 'FL', 'ORL', 'Orlando Metropolitan Area', 'LN', ''),
('ORN', 'Algeria', 'ORN', 'Oran (Ouahran)', 'DZ', ''),
('ORS', 'Australia', 'ORS', 'Orpheus Island', 'LN', ''),
('ORY', 'France', 'ORY', 'Paris - Orly', 'FR', ''),
('OSH', 'WI', 'OSH', 'Oshkosh', 'LN', ''),
('OSI', 'Croatia (Hrvatska)', 'OSI', 'Osijek', 'LN', ''),
('OSL', 'Norway', 'OSL', 'Oslo', 'NO', ''),
('OTH', 'OR', 'OTH', 'North Bend', 'US', ''),
('OTI', 'Morotai', 'OTI', 'Pitu', 'ID', 'Indonesia'),
('OTP', 'Otopeni', 'OTP', 'Bucharest', 'RO', ''),
('OTZ', 'AK', 'OTZ', 'Kotzbue', 'US', ''),
('OUA', 'Burkina Faso', 'OUA', 'Ouagadougou', 'BF', ''),
('OUD', 'Morocco', 'OUD', 'Oujda', 'MA', ''),
('OUL', 'Finland', 'OUL', 'Oulu', 'FI', ''),
('OVB', 'Russia', 'OVB', 'Novosibirsk - Tolmachevo', 'RU', ''),
('OVD', 'Spain', 'OVD', 'Oviedo', 'ES', ''),
('OWB', 'KY', 'OWB', 'Owensboro', 'US', ''),
('OXR', 'CA', 'OXR', 'Oxnard', 'LN', ''),
('OZZ', 'Morocco', 'OZZ', 'Ouarzazate', 'MA', ''),
('PAD', 'Germany', 'PAD', 'Paderborn/Lippstadt', 'DE', ''),
('PAH', 'KY', 'PAH', 'Paducah', 'US', ''),
('PAP', 'Haiti', 'PAP', 'Port au Prince', 'HT', ''),
('PAR', 'PAR', 'PAR', '', '', ''),
('PAT', 'India', 'PAT', 'Patna', 'IN', ''),
('PBC', 'Mexico', 'PBC', 'Puebla', 'MX', ''),
('PBH', 'Bhutan', 'PBH', 'Paro', 'BT', ''),
('PBI', 'FL', 'PBI', 'West Palm Beach', 'US', ''),
('PBM', 'Suriname', 'PBM', 'Paramaribo - Zanderij Int\'l', 'SR', ''),
('PBO', 'Australia', 'PBO', 'Paraburdoo', 'AU', ''),
('PDG', 'Padang', 'PDG', 'Minangkabau', 'ID', 'Indonesia'),
('PDL', 'Portugal', 'PDL', 'Ponta Delgada', 'PT', ''),
('PDT', 'OR', 'PDT', 'Pendelton', 'LN', ''),
('PDX', 'OR', 'PDX', 'Portland Int\'l', 'US', ''),
('PEG', 'Italy', 'PEG', 'Perugia', 'IT', ''),
('PEI', 'Colombia', 'PEI', 'Pereira', 'CO', ''),
('PEK', 'PEK', 'PEK', '', 'CN', ''),
('PEN', 'PEN', 'PEN', '', 'MY', ''),
('PER', 'PER', 'PER', '', 'AU', ''),
('PEW', 'Pakistan', 'PEW', 'Peshawar', 'PK', ''),
('PFN', 'FL', 'PFN', 'Panama City', 'LN', ''),
('PFO', 'Cyprus', 'PFO', 'Paphos', 'CY', ''),
('PGA', 'AZ', 'PGA', 'Page/Lake Powell', 'US', ''),
('PGF', 'France', 'PGF', 'Perpignan', 'FR', ''),
('PGK', 'Pangkal Pinang', 'PGK', 'Depati Amir', 'ID', 'Indonesia'),
('PGV', 'NC', 'PGV', 'Greenville', 'LN', ''),
('PHC', 'Nigeria', 'PHC', 'Port Harcourt', 'NG', ''),
('PHE', 'Australia', 'PHE', 'Port Hedland', 'AU', ''),
('PHF', 'VA', 'PHF', 'Newport News/Williamsburg', 'US', ''),
('PHL', 'PA - Int\'l', 'PHL', 'Philadelphia', 'US', ''),
('PHW', 'South Africa', 'PHW', 'Phalaborwa', 'ZA', ''),
('PHX', 'PHX', 'PHX', '', 'US', ''),
('PIA', 'IL', 'PIA', 'Peoria/Bloomington', 'US', ''),
('PIB', 'MS', 'PIB', 'Laurel/Hattisburg', 'US', ''),
('PIH', 'ID', 'PIH', 'Pocatello', 'US', ''),
('PIK', 'Prestwick', 'PIK', 'Glasgow', 'GB', ''),
('PIR', 'SD', 'PIR', 'Pierre', 'US', ''),
('PIT', 'PA', 'PIT', 'Pittsburgh Int\'l Airport', 'US', ''),
('PJG', 'Pakistan', 'PJG', 'Panjgur', 'PK', ''),
('PKB', 'WV/Marietta', 'PKB', 'Pakersburg', 'US', ''),
('PKN', 'Pangkalan Bun', 'PKN', 'Iskandar', 'ID', 'Indonesia'),
('PKU', 'Pekanbaru', 'PKU', 'Sultan Syarif Kasim II', 'ID', 'Indonesia'),
('PKW', 'Botswana', 'PKW', 'Selibi Phikwe', 'BW', ''),
('PKY', 'Palangkaraya', 'PKY', 'Tjilik Riwut', 'ID', 'Indonesia'),
('PLM', 'Palembang', 'PLM', 'Sultan Mahmud Badaruddin II', 'ID', 'Indonesia'),
('PLN', 'MI', 'PLN', 'Pellston', 'US', ''),
('PLO', 'Australia', 'PLO', 'Port Lincoln', 'AU', ''),
('PLW', 'Palu', 'PLW', 'Mutiara', 'ID', 'Indonesia'),
('PLZ', 'South Africa', 'PLZ', 'Port Elizabeth', 'ZA', ''),
('PMD', 'CA', 'PMD', 'Palmdale/Lancaster', 'US', ''),
('PMI', 'Spain', 'PMI', 'Palma de Mallorca', 'ES', ''),
('PMO', 'Italy', 'PMO', 'Palermo - Punta Raisi', 'IT', ''),
('PMR', 'New Zealand', 'PMR', 'Palmerston North', 'NZ', ''),
('PMV', 'Venezuela', 'PMV', 'Margerita', 'VE', ''),
('PNH', 'Cambodia', 'PNH', 'Phnom Penh - Pochentong', 'KH', ''),
('PNI', 'Micronesia', 'PNI', 'Pohnpei', 'FM', ''),
('PNK', 'Pontianak', 'PNK', 'Supadio', 'ID', 'Indonesia'),
('PNL', 'Italy', 'PNL', 'Pantelleria', 'IT', ''),
('PNQ', 'India', 'PNQ', 'Pune', 'IN', ''),
('PNR', 'Congo', 'PNR', 'Pointe Noire', 'CG', ''),
('PNS', 'FL', 'PNS', 'Pensacola', 'US', ''),
('POA', 'Brazil', 'POA', 'Porto Alegre', 'BR', ''),
('POG', 'Gabon', 'POG', 'Port Gentil', 'GA', ''),
('POM', 'Papua New Guinea', 'POM', 'Port Moresby - Jackson Field', 'PG', ''),
('POP', 'Dominican Republic', 'POP', 'Puerto Plata', 'DO', ''),
('POR', 'Finland', 'POR', 'Pori', 'FI', ''),
('POS', 'Trinidad', 'POS', 'Port of Spain', 'TT', ''),
('POZ', 'Lawica', 'POZ', 'Poznan', 'PL', ''),
('PPG', 'American Samoa', 'PPG', 'Pago Pago', 'AS', ''),
('PPP', 'Australia', 'PPP', 'Prosperpine', 'AU', ''),
('PPT', 'French Polynesia (Tahiti)', 'PPT', 'Papeete - Faaa', 'PF', ''),
('PQI', 'ME', 'PQI', 'Presque Island', 'US', ''),
('PQQ', 'Australia', 'PQQ', 'Port Macquarie', 'AU', ''),
('PRG', 'Czech Republic', 'PRG', 'Prague - Ruzyne', 'CZ', ''),
('PRN', 'Yugoslavia', 'PRN', 'Pristina', 'XK', ''),
('PRY', 'South Africa', 'PRY', 'Pretoria - Wonderboom Apt.', 'ZA', ''),
('PSA', 'Italy', 'PSA', 'Pisa - Gal Galilei', 'IT', ''),
('PSC', 'WA', 'PSC', 'Pasco', 'US', ''),
('PSD', 'Egypt', 'PSD', 'Port Said', 'LN', ''),
('PSE', 'Puerto Rico', 'PSE', 'Ponce', 'PR', ''),
('PSG', 'AK', 'PSG', 'Petersburg', 'US', ''),
('PSI', 'Pakistan', 'PSI', 'Pasni', 'PK', ''),
('PSJ', 'Poso', 'PSJ', 'Kasiguncu', 'ID', 'Indonesia'),
('PSP', 'CA', 'PSP', 'Palm Springs', 'US', ''),
('PSR', 'Italy', 'PSR', 'Pescara', 'IT', ''),
('PSU', 'Putussibau', 'PSU', 'Pangsuma ', 'ID', 'Indonesia'),
('PTG', 'South Africa', 'PTG', 'Pietersburg', 'ZA', ''),
('PTJ', 'Australia', 'PTJ', 'Portland', 'AU', ''),
('PTP', 'Guadeloupe', 'PTP', 'Pointe a Pitre', 'GP', ''),
('PTY', 'Panama', 'PTY', 'Panama City - Tocumen International', 'PA', ''),
('PUB', 'CO', 'PUB', 'Pueblo', 'US', ''),
('PUF', 'France', 'PUF', 'Pau', 'FR', ''),
('PUG', 'Australia', 'PUG', 'Port Augusta', 'AU', ''),
('PUJ', 'Dominican Republic', 'PUJ', 'Punta Cana', 'DO', ''),
('PUM', 'Pomalaa', 'PUM', 'Pomalaa', 'ID', 'Indonesia'),
('PUQ', 'Chile', 'PUQ', 'Punta Arenas', 'CL', ''),
('PUS', 'PUS', 'PUS', '', 'KR', ''),
('PUW', 'WA', 'PUW', 'Pullman', 'US', ''),
('PUY', 'Croatia (Hrvatska)', 'PUY', 'Pula', 'HR', ''),
('PVD', 'RI', 'PVD', 'Providence', 'US', ''),
('PVG', 'PVG', 'PVG', '', 'CN', ''),
('PVH', 'Brazil', 'PVH', 'Porto Velho', 'BR', ''),
('PVK', 'Greece', 'PVK', 'Preveza/Lefkas', 'GR', ''),
('PVR', 'Mexico', 'PVR', 'Puerto Vallarta', 'MX', ''),
('PWM', 'ME', 'PWM', 'Portland', 'US', ''),
('PXA', 'Atung Bungsu', 'PXA', 'Pagar Alam Airport', 'ID', 'Indonesia'),
('PXM', 'Mexico', 'PXM', 'Puerto Escondido', 'MX', ''),
('PXO', 'Portugal', 'PXO', 'Porto Santo', 'PT', ''),
('PZB', 'South Africa', 'PZB', 'Pietermaritzburg', 'ZA', ''),
('PZH', 'Pakistan', 'PZH', 'Zhob', 'PK', ''),
('PZO', 'Venezuela', 'PZO', 'Puerto Ordaz', 'VE', ''),
('QPG', 'Singapore', 'QPG', 'Singapore - Paya Lebar', 'LN', ''),
('RAI', 'Cape Verde', 'RAI', 'Praia', 'CV', ''),
('RAJ', 'India', 'RAJ', 'Rajkot', 'IN', ''),
('RAK', 'Morocco', 'RAK', 'Marrakech - Menara', 'MA', ''),
('RAP', 'SD', 'RAP', 'Rapid City', 'US', ''),
('MUN', 'Sulawesi Tenggara', 'RAQ', 'RAHA', 'ID', 'Indonesia'),
('RAR', 'Island', 'RAR', 'Rarotonga Cook', 'CK', ''),
('RAZ', 'Pakistan', 'RAZ', 'Rawala Kot', 'PK', ''),
('RBA', 'Morocco', 'RBA', 'Rabat - Sale', 'MA', ''),
('RBR', 'Brazil', 'RBR', 'Rio Branco', 'BR', ''),
('RCB', 'South Africa', 'RCB', 'Richards Bay', 'ZA', ''),
('RDD', 'CA', 'RDD', 'Redding', 'US', ''),
('RDG', 'PA', 'RDG', 'Reading', 'US', ''),
('RDM', 'OR', 'RDM', 'Redmond', 'US', ''),
('RDU', 'NC', 'RDU', 'Raleigh/Durham', 'US', ''),
('RDZ', 'France', 'RDZ', 'Rodez', 'FR', ''),
('REC', 'Brazil', 'REC', 'Recife', 'BR', ''),
('REG', 'Italy', 'REG', 'Reggio Calabria', 'IT', ''),
('REU', 'Spain', 'REU', 'Reus', 'ES', ''),
('RFD', 'IL', 'RFD', 'Rockford', 'US', ''),
('RFP', 'French Polynesia', 'RFP', 'Raiatea', 'PF', ''),
('RGI', 'French Polynesia', 'RGI', 'Rangiroa', 'PF', ''),
('RGN', 'RGN', 'RGN', '', 'MM', ''),
('RGT', 'Rengat', 'RGT', 'Japura', 'ID', 'Indonesia'),
('RHI', 'WI', 'RHI', 'Rhinelander', 'US', ''),
('RHO', 'Greece', 'RHO', 'Rhodos', 'GR', ''),
('RIC', 'VA', 'RIC', 'Richmond', 'US', ''),
('RIX', 'Latvia', 'RIX', 'Riga', 'LV', ''),
('RJK', 'Croatia (Hrvatska)', 'RJK', 'Rijeka', 'HR', ''),
('RJM', 'Raja Ampat', 'RJM', 'Marinda Airport', 'ID', 'Indonesia'),
('RKD', 'ME', 'RKD', 'Rockland', 'LN', ''),
('RKS', 'WY', 'RKS', 'Rock Springs', 'US', ''),
('RKT', 'UAE', 'RKT', 'Ras al Khaymah (Ras al Khaimah)', 'AE', ''),
('RMI', 'Italy', 'RMI', 'Rimini', 'IT', ''),
('RNB', 'Sweden', 'RNB', 'Ronneby', 'SE', ''),
('RNE', 'France', 'RNE', 'Roanne', 'LN', ''),
('RNN', 'Denmark', 'RNN', 'Roenne', 'DK', ''),
('RNO', 'NV', 'RNO', 'Reno', 'US', ''),
('RNS', 'France', 'RNS', 'Rennes', 'FR', ''),
('ROA', 'VA', 'ROA', 'Roanoke', 'US', ''),
('ROB', 'Liberia', 'ROB', 'Monrovia - Roberts Int\'l', 'LR', ''),
('ROC', 'NY', 'ROC', 'Rochester', 'US', ''),
('ROK', 'Australia', 'ROK', 'Rockhampton', 'AU', ''),
('ROS', 'Argentina', 'ROS', 'Rosario', 'AR', ''),
('ROT', 'New Zealand', 'ROT', 'Rotorua', 'NZ', ''),
('RRG', 'Mauritius', 'RRG', 'Rodrigues Island', 'MU', ''),
('RSA', 'Argentina', 'RSA', 'Santa Rosa', 'AR', ''),
('RSD', 'Bahamas', 'RSD', 'Rock Sound', 'LN', ''),
('RST', 'MN', 'RST', 'Rochester', 'US', ''),
('RSW', 'Southwest Florida Reg', 'RSW', 'Fort Myers', 'US', ''),
('RTB', 'Honduras', 'RTB', 'Roatan', 'HN', ''),
('RTI', 'Rote Island', 'RTI', 'Roti', 'ID', 'Indonesia'),
('RTM', 'Netherlands', 'RTM', 'Rotterdam', 'NL', ''),
('RUH', 'Saudi Arabia', 'RUH', 'Riyadh - King Khaled Int\'l', 'SA', ''),
('RUN', 'Reunion', 'RUN', 'Saint Denis de la Reunion', 'RE', ''),
('RVN', 'Finland', 'RVN', 'Rovaniemi', 'FI', ''),
('RWI', 'NC', 'RWI', 'Rocky Mount - Wilson', 'LN', ''),
('RYK', 'Pakistan', 'RYK', 'Rahim Yar Khan', 'PK', ''),
('SAH', 'Yemen', 'SAH', 'Sanaa (Sana\'a) - Sana\'a International', 'YE', ''),
('SAL', 'El Salvador', 'SAL', 'San Salvador', 'SV', ''),
('SAN', 'CA', 'SAN', 'San Diego - Lindberg Field Int\'l', 'US', ''),
('SAP', 'Honduras', 'SAP', 'San Pedro Sula', 'HN', ''),
('SAT', 'TX', 'SAT', 'San Antonio', 'US', ''),
('SAV', 'GA', 'SAV', 'Savannah', 'US', ''),
('SAY', 'Zimbabwe', 'SAY', 'Salisbury', 'LN', ''),
('SBA', 'CA', 'SBA', 'Santa Barbara', 'US', ''),
('BTJ', 'Sabang', 'SBG', 'Maimun Saleh', 'ID', 'Indonesia'),
('SBK', 'France', 'SBK', 'Saint Brieuc', 'LN', ''),
('SBN', 'IN', 'SBN', 'South Bend', 'US', ''),
('SBP', 'CA', 'SBP', 'San Luis Obisco', 'US', ''),
('SBU', 'South Africa', 'SBU', 'Springbok', 'LN', ''),
('SBW', 'SBW', 'SBW', '', 'MY', ''),
('SBY', 'MD', 'SBY', 'Salisbury', 'US', ''),
('SCC', 'AK', 'SCC', 'Prudhoe Bay', 'US', ''),
('SCE', 'PA', 'SCE', 'State College/Belefonte', 'US', ''),
('SCK', 'CA', 'SCK', 'Stockton', 'LN', ''),
('SCL', 'Chile', 'SCL', 'Santiago de Chile - Arturo Merino Benitez', 'CL', ''),
('SCN', 'Germany', 'SCN', 'Saarbruecken', 'DE', ''),
('SCQ', 'Spain', 'SCQ', 'Santiago de Compostela', 'ES', ''),
('SCU', 'Cuba', 'SCU', 'Santiago - Antonio Maceo Airport', 'CU', ''),
('SDF', 'KY', 'SDF', 'Louisville', 'US', ''),
('SDJ', 'Japan', 'SDJ', 'Sendai', 'JP', ''),
('SDL', 'Sweden', 'SDL', 'Sundsvall', 'SE', ''),
('SDQ', 'Dominican Republic', 'SDQ', 'Santo Domingo', 'DO', ''),
('SDR', 'Spain', 'SDR', 'Santander', 'ES', ''),
('SDT', 'Pakistan', 'SDT', 'Saidu Sharif', 'PK', ''),
('SDU', 'Brazil', 'SDU', 'Rio de Janeiro - Santos Dumont', 'BR', ''),
('SDY', 'MT', 'SDY', 'Sidney', 'LN', ''),
('SEA', 'WA', 'SEA', 'Seattle/Tacoma', 'US', ''),
('SEB', 'Libya', 'SEB', 'Sehba', 'LY', ''),
('SEL', 'SEL', 'SEL', '', '', ''),
('SEN', 'United Kingdom', 'SEN', 'Southend', 'GB', ''),
('SEZ', 'Seychelles', 'SEZ', 'Mahe - Seychelles Int\'l', 'SC', ''),
('SFA', 'Tunisia', 'SFA', 'Sfax', 'TN', ''),
('SFG', 'St. Martin', 'SFG', 'St. Martin', 'MF', ''),
('SFJ', 'Greenland', 'SFJ', 'Soendre Stroemfjord', 'GL', ''),
('SFO', 'SFO', 'SFO', '', 'US', ''),
('SGD', 'Denmark', 'SGD', 'Soenderborg', 'DK', ''),
('SGF', 'MO', 'SGF', 'Springfield', 'US', ''),
('SGN', 'SGN', 'SGN', '', 'VM', ''),
('SGY', 'AK', 'SGY', 'Skagway', 'US', ''),
('SHA', 'SHA', 'SHA', '', 'CN', ''),
('SHD', 'VA', 'SHD', 'Shenandoah Valley/Stauton', 'US', ''),
('SHE', 'SHE', 'SHE', '', 'CN', ''),
('SHJ', 'UAE', 'SHJ', 'Sharjah', 'AE', ''),
('SHR', 'WY', 'SHR', 'Sheridan', 'US', ''),
('SHV', 'La', 'SHV', 'Shreveport', 'US', ''),
('SID', 'Cape Verde', 'SID', 'Sal', 'CV', ''),
('SIN', 'Singapore', 'SIN', 'Changi', 'SN', ''),
('SIP', 'Ukraine', 'SIP', 'Simferopol', 'UA', ''),
('SIS', 'South Africa', 'SIS', 'Sishen', 'LN', ''),
('SIT', 'AK', 'SIT', 'Sitka', 'US', ''),
('SJC', 'CA', 'SJC', 'San Jose', 'US', ''),
('SJD', 'Mexico', 'SJD', 'Los Cabos', 'MX', ''),
('SJJ', 'Bosnia and Herzegovina', 'SJJ', 'Sarajevo', 'BA', ''),
('SJO', 'Costa Rica', 'SJO', 'San Jose', 'CR', ''),
('SJT', 'TX', 'SJT', 'San Angelo', 'US', ''),
('SJU', 'Rico', 'SJU', 'San Juan Perto', 'PR', ''),
('SJY', 'Finland', 'SJY', 'Seinaejoki', 'FI', ''),
('SKB', 'St. Kitts And Nevis', 'SKB', 'St. Kitts', 'KN', ''),
('SKD', 'Uzbekistan', 'SKD', 'Samarkand', 'UZ', ''),
('SKG', 'Greece', 'SKG', 'Saloniki', 'GR', ''),
('SKP', 'Macedonia', 'SKP', 'Skopje', 'MK', ''),
('SKS', 'Denmark', 'SKS', 'Skrydstrup', 'LN', ''),
('SKV', 'Egypt', 'SKV', 'Santa Katarina - Mount Sinai', 'LN', ''),
('SKZ', 'Pakistan', 'SKZ', 'Sukkur', 'PK', ''),
('SLA', 'Gen Belgrano', 'SLA', 'Salta', 'AR', ''),
('SLC', 'UT', 'SLC', 'Salt Lake City', 'US', ''),
('SLE', 'OR', 'SLE', 'Salem', 'LN', ''),
('SLL', 'Oman', 'SLL', 'Salalah', 'OM', ''),
('SLP', 'Mexico', 'SLP', 'San Luis Potosi', 'MX', ''),
('SLU', 'St. Lucia', 'SLU', 'St. Lucia Vigle', 'LC', ''),
('SLZ', 'Brazil', 'SLZ', 'Sao Luis', 'BR', ''),
('SMA', 'Portugal', 'SMA', 'Santa Maria', 'PT', ''),
('SMF', 'CA', 'SMF', 'Sacramento', 'US', ''),
('SMG', 'Simeleu', 'SMG', 'Lasikin Airport', 'ID', 'Indonesia'),
('SMI', 'Greece', 'SMI', 'Samos', 'GR', ''),
('SMQ', 'Kalimantan', 'SMQ', 'Sampit Hasan', 'ID', 'Indonesia'),
('SMX', 'CA', 'SMX', 'Santa Maria', 'US', ''),
('SNA', 'CA', 'SNA', 'Orange County (Santa Ana)', 'US', ''),
('SNC', 'Ecuador', 'SNC', 'Salinas', 'LN', ''),
('SNN', 'Ireland', 'SNN', 'Shannon (Limerick)', 'IE', ''),
('SOC', 'Solo', 'SOC', 'Adi Sumarmo', 'ID', 'Indonesia'),
('SOF', 'Bulgaria', 'SOF', 'Sofia - Vrazhdebna', 'BG', ''),
('SOG', 'Norway', 'SOG', 'Sogndal', 'NO', ''),
('SON', 'Vanuatu', 'SON', 'Santo', 'VU', ''),
('SOQ', 'Sorong', 'SOQ', 'Domine Eduard Osok', 'ID', 'Indonesia'),
('SOT', 'Finland', 'SOT', 'Sodankylae', 'LN', ''),
('SOU', 'United Kingdom', 'SOU', 'Southampton - Eastleigh', 'GB', ''),
('SPC', 'Spain', 'SPC', 'Santa Cruz de la Palma', 'ES', ''),
('SPI', 'IL', 'SPI', 'Springfield', 'US', ''),
('SPK', 'SPK', 'SPK', '', '', ''),
('SPN', 'Northern Mariana Islands', 'SPN', 'Saipan', 'MP', ''),
('SPS', 'TX', 'SPS', 'Wichita Falls', 'US', ''),
('SPU', 'Croatia (Hrvatska)', 'SPU', 'Split', 'HR', ''),
('SPY', 'Ivory Coast', 'SPY', 'San Pedro', 'LN', ''),
('SQG', 'Sintang', 'SQG', 'Susilo', 'ID', 'Indonesia'),
('SQN', 'Maluku', 'SQN', 'Emalamo Sanana Airport', 'ID', 'Indonesia'),
('SRA', 'Brazil', 'SRA', 'Santa Rosa', 'BR', ''),
('SRG', 'Semarang', 'SRG', 'Achmad Yani', 'ID', 'Indonesia'),
('SRI', 'Samarinda', 'SRI', 'Temindung', 'ID', 'Indonesia'),
('SRQ', 'FL', 'SRQ', 'Sarasota/Bradenton', 'US', ''),
('SRZ', 'Bolivia', 'SRZ', 'Santa Cruz de la Sierra', 'BO', ''),
('SSA', 'Brazil', 'SSA', 'Salvador', 'BR', ''),
('SSG', 'Equatorial Guinea', 'SSG', 'Malabo', 'GQ', ''),
('SSH', 'Egypt', 'SSH', 'Sharm El Sheikh', 'EG', 'Egypt'),
('STL', 'MO', 'STL', 'St. Louis - Lambert', 'US', ''),
('STN', 'United Kingdom', 'STN', 'London - Stansted', 'GB', ''),
('STO', 'STO', 'STO', '', '', ''),
('STR', 'Germany', 'STR', 'Stuttgart - Echterdingen', 'DE', ''),
('STS', 'CA', 'STS', 'Santa Rosa', 'US', ''),
('STT', 'Virgin Islands', 'STT', 'St. Thomas', 'VI', ''),
('STV', 'India', 'STV', 'Surat', 'IN', ''),
('STX', 'Virgin Islands', 'STX', 'St. Croix', 'VI', ''),
('SUB', 'Surabaya', 'SUB', 'Juanda', 'ID', 'Indonesia'),
('SUF', 'Italy', 'SUF', 'Lamezia Terme', 'IT', ''),
('SUL', 'Pakistan', 'SUL', 'Sui', 'LN', ''),
('SUN', 'ID', 'SUN', 'Sun Valley', 'US', ''),
('SUP', 'Sumenep', 'SUP', 'Trunojoyo', 'ID', 'Indonesia'),
('SUV', 'Fiji/Suva', 'SUV', 'Nausori', 'FJ', ''),
('SUX', 'IA', 'SUX', 'Sioux City', 'US', ''),
('SVD', 'St. Vincent', 'SVD', 'St. Vincent', 'VC', ''),
('SVG', 'Norway', 'SVG', 'Stavanger', 'NO', ''),
('SVL', 'Finland', 'SVL', 'Savonlinna', 'FI', ''),
('SVO', 'Russia', 'SVO', 'Moscow - Sheremetyevo', 'RU', ''),
('SVQ', 'Spain', 'SVQ', 'Sevilla', 'ES', ''),
('SWF', 'NY', 'SWF', 'Newburgh', 'US', ''),
('SWP', 'Namibia', 'SWP', 'Swakopmund', 'NA', ''),
('SWQ', 'Sumbawa', 'SWQ', 'Sumbawa Besar', 'ID', 'Indonesia'),
('SXB', 'France', 'SXB', 'Strassburg', 'FR', ''),
('SXF', 'Schoenefeld', 'SXF', 'Berlin', 'DE', ''),
('SXK', 'Saumlaki', 'SXK', 'Saumlaki Olilit Airport', 'ID', 'Indonesia'),
('SXL', 'Ireland', 'SXL', 'Sligo', 'LN', ''),
('SXM', 'Netherlands Antilles', 'SXM', 'St. Marteen', 'SX', ''),
('SXR', 'India', 'SXR', 'Srinagar', 'IN', ''),
('SYD', 'SYD', 'SYD', '', 'AU', ''),
('SYR', 'NY', 'SYR', 'Syracuse', 'US', ''),
('SYX', 'SYX', 'SYX', '', 'CN', ''),
('SYY', 'United Kingdom', 'SYY', 'Stornway', 'GB', ''),
('SZB', 'SZB', 'SZB', '', 'MY', ''),
('SZG', 'Austria', 'SZG', 'Salzburg - W.A. Mozart', 'AT', ''),
('SZK', 'South Africa', 'SZK', 'Skukuza', 'LN', ''),
('SZX', 'SZX', 'SZX', '', 'CN', ''),
('SZZ', 'Poland', 'SZZ', 'Stettin', 'PL', ''),
('TAB', 'Tobago', 'TAB', 'Tobago', 'TT', ''),
('TAK', 'Japan', 'TAK', 'Takamatsu', 'JP', ''),
('TAM', 'Mexico', 'TAM', 'Tampico - Gen. F. Javier Mina', 'MX', ''),
('TAO', 'TAO', 'TAO', '', 'CN', ''),
('TAS', 'Uzbekistan', 'TAS', 'Tashkent - Vostochny', 'UZ', ''),
('TAY', 'Taiwan', 'TAY', 'Taipei - Sung Shan', 'EE', ''),
('TBS', 'Georgia', 'TBS', 'Tbilisi - Novo Alexeyevka', 'GE', ''),
('TBU', 'Tonga', 'TBU', 'Nuku\'alofa - Fua\'Amotu International', 'TO', ''),
('TCA', 'Australia', 'TCA', 'Tennant Creek', 'AU', ''),
('TCB', 'Bahamas', 'TCB', 'Treasure Cay', 'BS', ''),
('TCL', 'AL', 'TCL', 'Tuscaloosa', 'LN', ''),
('TED', 'Denmark', 'TED', 'Thisted', 'LN', ''),
('TEM', 'Australia', 'TEM', 'Temora', 'LN', ''),
('TER', 'Portugal', 'TER', 'Terceira', 'PT', ''),
('TEU', 'New Zealand', 'TEU', 'Te Anau', 'LN', ''),
('TEX', 'CO', 'TEX', 'Telluride', 'LN', ''),
('TFN', 'Teneriffa/Spain', 'TFN', 'Los Rodeos', 'ES', ''),
('TFS', 'Teneriffa/Spain', 'TFS', 'Reina Sofia', 'ES', ''),
('TGD', 'Yugoslavia', 'TGD', 'Podgorica', 'ME', ''),
('TGG', 'TGG', 'TGG', '', 'MY', ''),
('TGU', 'Honduras', 'TGU', 'Tegucigalpa', 'HN', ''),
('TGZ', 'Mexico', 'TGZ', 'Tuxtla Gutierrez', 'MX', ''),
('THE', 'Brazil', 'THE', 'Teresina', 'BR', ''),
('THF', 'Tempelhof', 'THF', 'Berlin', 'LN', ''),
('THR', 'Iran', 'THR', 'Tehran (Teheran) - Mehrabad', 'IR', ''),
('TIA', 'Albania', 'TIA', 'Tirana - Rinas', 'AL', ''),
('TIF', 'Saudi Arabia', 'TIF', 'Taif', 'SA', ''),
('TIJ', 'Mexico', 'TIJ', 'Tijuana - Rodriguez', 'MX', ''),
('TIM', 'Timika', 'TIM', 'Moses Kilangin', 'ID', 'Indonesia'),
('TIP', 'Libya', 'TIP', 'Tripoli - Tripoli Int\'l', 'LY', ''),
('TIV', 'Yugoslavia', 'TIV', 'Tivat', 'ME', ''),
('TJG', 'Tanjung Warukin', 'TJG', 'Warukin Airport', 'ID', 'Indonesia'),
('TJQ', 'Tanjung Pandan', 'TJQ', 'H As Hanandjoeddin', 'ID', 'Indonesia'),
('TJS', 'Tanjung Selor', 'TJS', 'Tanjung Harapan', 'ID', 'Indonesia'),
('TKA', 'AK', 'TKA', 'Talkeetna', 'LN', ''),
('TKG', 'Bandar Lampung', 'TKG', 'Radin Inten II', 'ID', 'Indonesia'),
('TKS', 'Japan', 'TKS', 'Tokushima', 'JP', ''),
('TKU', 'Finland', 'TKU', 'Turku', 'FI', ''),
('TLH', 'FL', 'TLH', 'Tallahassee', 'US', ''),
('TLI', 'Toli-Toli', 'TLI', 'Sultan Bantilan', 'ID', 'Indonesia'),
('TLL', 'Estonia', 'TLL', 'Tallinn - Ulemiste', 'EE', ''),
('TLS', 'France', 'TLS', 'Toulouse - Blagnac', 'FR', ''),
('TLV', 'Israel', 'TLV', 'Tel Aviv - Ben Gurion Int\'l', 'IL', ''),
('TMC', 'Waikabubak', 'TMC', 'Tambolaka', 'ID', 'Indonesia'),
('TMP', 'Finland', 'TMP', 'Tampere', 'FI', ''),
('TMS', 'Sao Tome & Principe', 'TMS', 'Sao Tome', 'ST', ''),
('TMW', 'Australia', 'TMW', 'Tamworth', 'AU', ''),
('TNA', 'Shandong', 'TNA', 'Jinan', 'CN', ''),
('TNG', 'Morocco', 'TNG', 'Tanger - Boukhalef', 'MA', ''),
('TNJ', 'Tanjung Pinang', 'TNJ', 'Kijang', 'ID', 'Indonesia'),
('TNR', 'Madagascar', 'TNR', 'Antananarivo (Tanannarive)', 'MG', ''),
('TOD', 'Indonesia', 'TOD', 'Tioman', 'MY', ''),
('TOL', 'OH', 'TOL', 'Toledo', 'US', ''),
('TOS', 'Norway', 'TOS', 'Tromsoe', 'NO', ''),
('TOU', 'New Caledonia', 'TOU', 'Touho', 'NC', ''),
('TOY', 'Japan', 'TOY', 'Toyama', 'JP', ''),
('TPA', 'FL', 'TPA', 'Tampa Int\'l', 'US', ''),
('TPE', 'TPE', 'TPE', '', 'TW', ''),
('TPS', 'Italy', 'TPS', 'Trapani', 'IT', ''),
('TRD', 'Norway', 'TRD', 'Trondheim', 'NO', ''),
('TRF', 'Norway', 'TRF', 'Oslo - Sandefjord', 'NO', ''),
('TRI', 'TN/VA', 'TRI', 'Tri-Cities Regional', 'US', ''),
('TRK', 'Tarakan', 'TRK', 'Juwata', 'ID', 'Indonesia'),
('TRN', 'Italy', 'TRN', 'Turin', 'IT', ''),
('TRO', 'Australia', 'TRO', 'Taree', 'AU', ''),
('TRS', 'Italy', 'TRS', 'Trieste', 'IT', ''),
('TRV', 'India', 'TRV', 'Thiruvananthapuram', 'IN', ''),
('TRZ', 'TRZ', 'TRZ', '', 'IN', ''),
('TSB', 'Namibia', 'TSB', 'Tsumeb', 'LN', ''),
('TSE', 'Kazakstan', 'TSE', 'Astana', 'KZ', ''),
('TSF', 'Italy', 'TSF', 'Treviso', 'IT', ''),
('TSN', 'China', 'TSN', 'Tianjin', 'CN', ''),
('TSV', 'Australia', 'TSV', 'Townsville', 'AU', ''),
('TSY', 'Tasikmalaya', 'TSY', 'Cibeureum Airfield', 'ID', 'Indonesia'),
('TTE', 'Ternate', 'TTE', 'Sultan Babullah', 'ID', 'Indonesia'),
('TTN', 'NJ', 'TTN', 'Trenton/Princeton', 'US', ''),
('TUK', 'Pakistan', 'TUK', 'Turbat', 'PK', ''),
('TUL', 'OK', 'TUL', 'Tulsa', 'US', ''),
('TUN', 'Tunisia', 'TUN', 'Tunis - Carthage', 'TN', ''),
('TUP', 'MS', 'TUP', 'Tulepo', 'US', ''),
('TUS', 'AZ', 'TUS', 'Tucson', 'US', ''),
('TUU', 'Saudi Arabia', 'TUU', 'Tabuk', 'SA', ''),
('TVC', 'MI', 'TVC', 'Traverse City', 'US', ''),
('TVF', 'MN', 'TVF', 'Thief River Falls', 'LN', ''),
('TVL', 'CA', 'TVL', 'Lake Tahoe', 'LN', ''),
('TWB', 'Australia', 'TWB', 'Toowoomba', 'LN', ''),
('TWF', 'ID', 'TWF', 'Twin Falls', 'US', ''),
('TWU', 'TWU', 'TWU', '', 'MY', ''),
('TXE', 'Takengon', 'TXE', 'Takengon Rembele Airport', 'ID', 'Indonesia'),
('TXK', 'AR', 'TXK', 'Texarkana', 'US', ''),
('TXL', 'Tegel', 'TXL', 'Berlin', 'DE', ''),
('TYN', 'Shanxi', 'TYN', 'Taiyuan', 'CN', ''),
('TYO', 'TYO', 'TYO', '', '', ''),
('TYR', 'TX', 'TYR', 'Tyler', 'US', ''),
('TYS', 'TN', 'TYS', 'Knoxville', 'US', ''),
('UAK', 'Greenland', 'UAK', 'Narsarsuaq', 'GL', ''),
('UDI', 'MG', 'UDI', 'Uberlandia', 'BR', ''),
('UET', 'Pakistan', 'UET', 'Quetta', 'PK', ''),
('UIN', 'IL', 'UIN', 'Quincy', 'US', ''),
('UIO', 'Ecuador', 'UIO', 'Quito - Mariscal Sucr', 'EC', ''),
('UIP', 'France', 'UIP', 'Quimper', 'FR', ''),
('UKB', 'Japan', 'UKB', 'Kobe', 'JP', ''),
('UKY', 'Japan', 'UKY', 'Kyoto', 'LN', ''),
('ULD', 'South Africa', 'ULD', 'Ulundi', 'LN', ''),
('ULN', 'Mongolia', 'ULN', 'Ulaanbaatar - Buyant Uhaa', 'MN', ''),
('ULU', 'Uganda', 'ULU', 'Gulu', 'UG', ''),
('UMR', 'Australia', 'UMR', 'Woomera', 'AU', ''),
('UOL', 'Buol', 'UOL', 'Pogogul', 'ID', 'Indonesia'),
('UPG', 'Ujung Pandang', 'UPG', 'Hasanuddin', 'ID', 'Indonesia'),
('URC', 'Xinjiang', 'URC', 'Urumqi', 'CN', ''),
('URT', 'URT', 'URT', '', 'TH', ''),
('UTN', 'South Africa', 'UTN', 'Upington', 'ZA', ''),
('UTP', 'Thailand', 'UTP', 'Utapao (Pattaya)', 'TH', ''),
('UTT', 'South Africa', 'UTT', 'Umtata', 'ZA', ''),
('UUD', 'Russia', 'UUD', 'Ulan-Ude', 'RU', ''),
('UVE', 'Gabon/Loyautte', 'UVE', 'Oyem', 'NC', ''),
('UVF', 'St. Lucia', 'UVF', 'St. Lucia Hewanorra', 'LC', ''),
('VAA', 'Finland', 'VAA', 'Vaasa', 'FI', ''),
('VAR', 'Bulgaria', 'VAR', 'Varna', 'BG', ''),
('VBS', 'Montichiari', 'VBS', 'Brescia', 'IT', ''),
('VBY', 'Sweden', 'VBY', 'Visby', 'SE', ''),
('VCE', 'Italy', 'VCE', 'Venice - Marco Polo', 'IT', ''),
('VCP', 'Brazil', 'VCP', 'Sao Paulo - Viracopos', 'BR', ''),
('VDA', 'Ovula', 'VDA', 'Elat', 'IL', ''),
('VDE', 'Spain', 'VDE', 'Valverde', 'ES', ''),
('VDZ', 'AK', 'VDZ', 'Valdez', 'LN', ''),
('VEL', 'UT', 'VEL', 'Vernal', 'LN', ''),
('VER', 'Mexico', 'VER', 'Veracruz', 'MX', ''),
('VFA', 'Zimbabwe', 'VFA', 'Victoria Falls', 'ZW', ''),
('VGO', 'Spain', 'VGO', 'Vigo', 'ES', ''),
('VIE', 'VIE', 'VIE', '', 'AT', ''),
('VIJ', 'Virgin Islands', 'VIJ', 'Virgin Gorda', 'VG', ''),
('VIS', 'CA', 'VIS', 'Visalia', 'LN', ''),
('VIT', 'Spain', 'VIT', 'Vitoria', 'ES', ''),
('VIX', 'Brazil', 'VIX', 'Vitoria', 'BR', ''),
('VKO', 'Russia', 'VKO', 'Moscow - Vnukovo', 'RU', ''),
('VLC', 'Spain', 'VLC', 'Valencia', 'ES', ''),
('VLD', 'GA', 'VLD', 'Valdosta', 'US', ''),
('VLI', 'Vanuatu', 'VLI', 'Port Vila', 'VU', ''),
('VLL', 'Spain', 'VLL', 'Valladolid', 'ES', ''),
('VLN', 'Venezuela', 'VLN', 'Valencia', 'VE', ''),
('VLU', 'Russia', 'VLU', 'Velikiye Luki (Welikije Luki)', 'LN', ''),
('VNO', 'Lithuania', 'VNO', 'Wilna (Vilnius)', 'LT', ''),
('VNS', 'India', 'VNS', 'Varanasi', 'IN', ''),
('VPM', 'Buol', 'VPM', 'Tanjung Api Airport', 'ID', 'Indonesia'),
('VPS', 'FL', 'VPS', 'Fort Walton Beach', 'US', ''),
('VRA', 'Cuba', 'VRA', 'Varadero', 'CU', ''),
('VRB', 'FL', 'VRB', 'Vero Beach/Ft. Pierce', 'LN', ''),
('VRK', 'Finland', 'VRK', 'Varkaus', 'FI', ''),
('VRN', 'Italy', 'VRN', 'Verona', 'IT', ''),
('VSA', 'Mexico', 'VSA', 'Villahermosa', 'MX', ''),
('VST', 'Sweden', 'VST', 'Vasteras', 'SE', ''),
('VTE', 'Laos', 'VTE', 'Vientiane - Wattay', 'LA', ''),
('VXO', 'Sweden', 'VXO', 'Vaexjoe', 'SE', ''),
('WAS', 'DC', 'WAS', 'Washington', 'LN', ''),
('WAW', 'Poland', 'WAW', 'Warsaw', 'PL', ''),
('WDH', 'Namibia', 'WDH', 'Windhoek - Hosea Kutako Int\'l', 'NA', ''),
('WEI', 'Australia', 'WEI', 'Weipa', 'AU', ''),
('WEL', 'South Africa', 'WEL', 'Welkom', 'LN', ''),
('WGA', 'Australia', 'WGA', 'Wagga', 'AU', ''),
('WGP', 'Waingapu', 'WGP', 'Mau Hau', 'ID', 'Indonesia'),
('WHK', 'New Zealand', 'WHK', 'Whakatane', 'NZ', ''),
('WIC', 'United Kingdom', 'WIC', 'Wick', 'GB', ''),
('WLG', 'New Zealand', 'WLG', 'Wellington', 'NZ', ''),
('WLS', 'Wallis and Futuna Islands', 'WLS', 'Wallis', 'WF', ''),
('WMX', 'Wamena', 'WMX', 'Wamena', 'ID', 'Indonesia'),
('WNI', 'Wakatobi', 'WNI', 'Matahora', 'ID', 'Indonesia'),
('WNS', 'Pakistan', 'WNS', 'Nawab Shah', 'PK', ''),
('WNZ', 'WNZ', 'WNZ', '', 'CN', ''),
('WOL', 'Australia', 'WOL', 'Wollongong', 'AU', ''),
('WRE', 'New Zealand', 'WRE', 'Whangarei', 'NZ', ''),
('WRG', 'AK', 'WRG', 'Wrangell', 'US', ''),
('WRL', 'WY', 'WRL', 'Worland', 'US', ''),
('WUB', 'Buli', 'WUB', 'Buli', 'ID', 'Indonesia'),
('WUH', 'WUH', 'WUH', '', 'CN', ''),
('WUN', 'Australia', 'WUN', 'Wiluna', 'AU', ''),
('WVB', 'South Africa', 'WVB', 'Walvis Bay', 'LN', ''),
('WYA', 'Australia', 'WYA', 'Whyalla', 'AU', ''),
('WYS', 'MT', 'WYS', 'West Yellowstone', 'LN', ''),
('XIY', 'XIY', 'XIY', '', 'CN', ''),
('XLB', 'MB', 'XLB', 'Lac Brochet', 'LN', ''),
('XMH', 'French Polynesia', 'XMH', 'Manihi', 'PF', ''),
('XMN', 'XMN', 'XMN', '', 'CN', ''),
('XRY', 'Spain', 'XRY', 'Jerez de la Frontera/Cadiz', 'ES', ''),
('XSI', 'MB', 'XSI', 'South Indian Lake', 'LN', ''),
('YAK', 'AK', 'YAK', 'Yakutat', 'US', ''),
('YAO', 'Cameroon', 'YAO', 'Yaounde', 'CM', ''),
('YAT', 'NT', 'YAT', 'Attawapiskat', 'CA', ''),
('YCB', 'Canada', 'YCB', 'Cambridge Bay', 'CA', ''),
('YDF', 'Canada', 'YDF', 'Deer Lake/Corner Brook', 'CA', ''),
('YEG', 'International', 'YEG', 'Edmonton', 'CA', ''),
('YEV', 'Canada', 'YEV', 'Inuvik', 'CA', ''),
('YFA', 'Canada', 'YFA', 'Fort Albert', 'CA', ''),
('YFB', 'Canada', 'YFB', 'Iqaluit (Frobisher Bay)', 'CA', ''),
('YFC', 'Canada', 'YFC', 'Fredericton', 'CA', ''),
('YFO', 'Canada', 'YFO', 'Flin Flon', 'CA', ''),
('YGL', 'Canada', 'YGL', 'La Grande', 'CA', ''),
('YGW', 'Canada', 'YGW', 'Kuujjuarapik', 'CA', ''),
('YGX', 'Canada', 'YGX', 'Gillam', 'CA', ''),
('YHM', 'Canada', 'YHM', 'Hamilton', 'CA', ''),
('YHR', 'PQ', 'YHR', 'Harrington Harbour', 'CA', ''),
('YHZ', 'Canada', 'YHZ', 'Halifax Int\'l', 'CA', ''),
('JOG', 'JOG', 'YIA', '', 'ID', 'Indonesia'),
('YIF', 'PQ', 'YIF', 'St. Augustin', 'LN', ''),
('YIW', 'YIW', 'YIW', '', 'CN', ''),
('YKM', 'WA', 'YKM', 'Yakima', 'US', ''),
('YKR', 'Selayar', 'YKR', 'H Aroeppala', 'ID', 'Indonesia'),
('YKS', 'Russian Federation', 'YKS', 'Yakutsk', 'RU', ''),
('YLW', 'BC', 'YLW', 'Kelowna', 'CA', ''),
('YMM', 'Canada', 'YMM', 'Fort McMurray', 'CA', ''),
('YMQ', 'Canada', 'YMQ', 'Montreal', 'LN', ''),
('YMX', 'Canada', 'YMX', 'Montreal - Mirabel', 'LN', ''),
('YNB', 'Saudi Arabia', 'YNB', 'Yanbu', 'SA', ''),
('YOP', 'AB', 'YOP', 'Rainbow Lake', 'CA', ''),
('YOW', 'Canada', 'YOW', 'Ottawa - Hull', 'CA', ''),
('YPN', 'PQ', 'YPN', 'Port Menier', 'LN', ''),
('YPR', 'Canada', 'YPR', 'Prince Rupert/Digby Island', 'CA', ''),
('YQB', 'Canada', 'YQB', 'Quebec - Quebec Int\'l', 'CA', ''),
('YQD', 'Canada', 'YQD', 'The Pas', 'CA', ''),
('YQG', 'Canada', 'YQG', 'Windsor Ontario', 'CA', ''),
('YQM', 'Canada', 'YQM', 'Moncton', 'CA', ''),
('YQR', 'Canada', 'YQR', 'Regina', 'CA', ''),
('YQT', 'Canada', 'YQT', 'Thunder Bay', 'CA', ''),
('YQX', 'Canada', 'YQX', 'Gander', 'CA', ''),
('YRB', 'Canada', 'YRB', 'Resolute Bay', 'CA', ''),
('YSJ', 'Canada', 'YSJ', 'Saint John', 'CA', ''),
('YSM', 'Canada', 'YSM', 'Fort Smith', 'CA', ''),
('YSR', 'Canada', 'YSR', 'Nanisivik', 'LN', ''),
('YTH', 'Canada', 'YTH', 'Thompson', 'CA', ''),
('YTO', 'Canada', 'YTO', 'Toronto', 'LN', ''),
('YTZ', 'Canada', 'YTZ', 'Toronto Island', 'CA', ''),
('YUL', 'Canada', 'YUL', 'Montreal - Dorval (Montréal-Trudeau)', 'CA', ''),
('YUM', 'AZ', 'YUM', 'Yuma', 'US', ''),
('YUX', 'Canada', 'YUX', 'Hall Beach', 'CA', ''),
('YVA', 'Comoros (Comores)', 'YVA', 'Moroni - Iconi', 'KM', ''),
('YVB', 'PQ', 'YVB', 'Bonaventure', 'LN', ''),
('YVO', 'Canada', 'YVO', 'Val d\'Or', 'CA', ''),
('YVP', 'Canada', 'YVP', 'Kuujjuaq (FortChimo)', 'CA', ''),
('YVQ', 'Canada', 'YVQ', 'Norman Wells', 'CA', ''),
('YVR', 'Canada', 'YVR', 'Vancouver - Vancouver Int\'l', 'CA', ''),
('YWG', 'Canada', 'YWG', 'Winnipeg Int\'l', 'CA', ''),
('YWK', 'Canada', 'YWK', 'Wabush', 'CA', ''),
('YXD', 'Municipal', 'YXD', 'Edmonton', 'LN', ''),
('YXE', 'Canada', 'YXE', 'Saskatoon', 'CA', ''),
('YXJ', 'Canada', 'YXJ', 'Fort St. John', 'CA', ''),
('YXN', 'NT', 'YXN', 'Whale Cove', 'CA', ''),
('YXS', 'Canada', 'YXS', 'Prince George', 'CA', ''),
('YXT', 'Canada', 'YXT', 'Terrace', 'CA', ''),
('YXU', 'Canada', 'YXU', 'London', 'CA', ''),
('YXY', 'Canada', 'YXY', 'Whitehorse', 'CA', ''),
('YYC', 'Canada', 'YYC', 'Calgary/Banff', 'CA', ''),
('YYD', 'Canada', 'YYD', 'Smithers', 'CA', ''),
('YYJ', 'Canada', 'YYJ', 'Victoria', 'CA', ''),
('YYQ', 'Canada', 'YYQ', 'Churchill', 'CA', ''),
('YYR', 'Canada', 'YYR', 'Goose Bay', 'CA', ''),
('YYT', 'Canada', 'YYT', 'St. John\'s', 'CA', ''),
('YYZ', 'Canada', 'YYZ', 'Toronto - Lester B. Pearson', 'CA', ''),
('YZF', 'Canada', 'YZF', 'Yellowknife', 'CA', ''),
('YZP', 'Canada', 'YZP', 'Sandspit', 'CA', ''),
('ZAD', 'Croatia (Hrvatska)', 'ZAD', 'Zadar', 'HR', ''),
('ZAG', 'Croatia (Hrvatska)', 'ZAG', 'Zagreb - Pleso', 'HR', ''),
('ZAZ', 'Spain', 'ZAZ', 'Zaragoza', 'ES', ''),
('ZCL', 'Mexico', 'ZCL', 'Zacatecas', 'MX', ''),
('ZIH', 'Mexico', 'ZIH', 'Ixtapa/Zihuatenejo', 'MX', ''),
('ZKE', 'PQ', 'ZKE', 'Kaschechawan', 'CA', ''),
('ZLO', 'Mexico', 'ZLO', 'Manzanillo', 'MX', ''),
('ZND', 'Niger', 'ZND', 'Zinder', 'NE', ''),
('ZNE', 'Australia', 'ZNE', 'Newman', 'AU', ''),
('ZQN', 'New Zealand', 'ZQN', 'Queenstown', 'NZ', ''),
('ZRH', 'ZRH', 'ZRH', '', 'CH', ''),
('ZSA', 'Bahamas', 'ZSA', 'San Salvador', 'BS', ''),
('ZTH', 'Greece', 'ZTH', 'Zakynthos', 'GR', ''),
('ZTM', 'MB', 'ZTM', 'Shamattawa', 'CA', ''),
('ZYI', 'ZYI', 'ZYI', '', 'CN', ''),
('ZYL', 'Bangladesh', 'ZYL', 'Sylhet', 'BD', '');
COMMIT;

/*!40101 SET CHARACTER_SET_CLIENT=@OLD_CHARACTER_SET_CLIENT */;
/*!40101 SET CHARACTER_SET_RESULTS=@OLD_CHARACTER_SET_RESULTS */;
/*!40101 SET COLLATION_CONNECTION=@OLD_COLLATION_CONNECTION */;
